M48
METRIC,TZ
T1C0.300
T2C0.400
T3C0.650
T4C0.800
T5C1.000
T6C1.016
T7C1.800
%
G90
G05
T1
X123637Y-53530
X123637Y-54730
X124437Y-53530
X124437Y-54730
X125237Y-53530
X125237Y-54730
X126037Y-53530
X126037Y-54730
T2
X74825Y-42665
X74825Y-67665
X74825Y-72665
X74825Y-77665
X74825Y-82665
X74825Y-104665
X74825Y-109665
X75078Y-48466
X77263Y-48415
X77825Y-44665
X77825Y-50665
X77825Y-58665
X77825Y-63665
X77825Y-111665
X78097Y-74221
X78097Y-75695
X78109Y-77168
X78109Y-78844
X78825Y-71665
X78825Y-83665
X79701Y-66500
X80006Y-81892
X80825Y-42665
X80825Y-56665
X80825Y-109665
X81238Y-67249
X81825Y-85665
X81825Y-103665
X82672Y-73325
X82678Y-76236
X82712Y-67249
X82825Y-78665
X83156Y-74780
X83825Y-44665
X83825Y-50665
X83825Y-106665
X83825Y-111665
X84134Y-67249
X84222Y-87937
X84333Y-72692
X84825Y-54665
X85023Y-78806
X85284Y-83040
X85825Y-47665
X85825Y-74665
X86286Y-87495
X86825Y-42665
X86825Y-103665
X86825Y-108665
X87484Y-66415
X87767Y-72701
X87825Y-51665
X87825Y-56665
X87825Y-77665
X87825Y-86665
X88642Y-85245
X88680Y-66410
X88825Y-111665
X89825Y-44665
X89825Y-105665
X90209Y-66414
X90522Y-72545
X90825Y-60665
X91055Y-82959
X91442Y-90469
X91770Y-89266
X91825Y-108665
X91884Y-66315
X92341Y-90784
X92706Y-69548
X92825Y-42665
X92825Y-50665
X92825Y-57665
X92825Y-84665
X92825Y-103665
X93214Y-82959
X93227Y-91134
X93825Y-46665
X93825Y-62665
X93825Y-111665
X93976Y-91722
X94535Y-92636
X94825Y-66665
X94825Y-75665
X94825Y-80665
X94825Y-94665
X94825Y-106665
X95010Y-85552
X95815Y-86212
X96218Y-67766
X96387Y-87020
X96770Y-68735
X96825Y-43665
X96825Y-48665
X96825Y-54665
X96984Y-87762
X97648Y-88445
X97825Y-103665
X98372Y-89169
X98454Y-82590
X99042Y-81830
X99564Y-47018
X99564Y-90833
X99825Y-45665
X99825Y-50665
X100317Y-87722
X100326Y-68735
X100707Y-60988
X100745Y-58867
X100825Y-72665
X101346Y-87400
X101825Y-63665
X101825Y-104665
X102403Y-87298
X102485Y-70858
X102612Y-51844
X102612Y-67211
X102825Y-77665
X102825Y-83665
X102825Y-108665
X102876Y-82254
X103247Y-66195
X103374Y-70132
X103628Y-94973
X103679Y-91519
X103755Y-64363
X103755Y-85880
X104263Y-58575
X104263Y-61623
X104387Y-87623
X104746Y-95075
X104771Y-51336
X104825Y-102665
X104825Y-111665
X105000Y-91468
X105111Y-68014
X105533Y-82197
X105787Y-61016
X105825Y-106665
X105938Y-65433
X105994Y-95205
X106016Y-91468
X106676Y-87404
X106803Y-51717
X107082Y-91519
X107133Y-95024
X107184Y-60563
X107322Y-65547
X107438Y-72799
X107700Y-64644
X107825Y-85665
X107825Y-99665
X107825Y-109665
X108048Y-91570
X108073Y-55498
X108073Y-68735
X108098Y-95481
X108200Y-61750
X108581Y-59464
X108708Y-69751
X108825Y-51665
X108825Y-78665
X108825Y-103665
X108835Y-82197
X109064Y-91722
X109067Y-95633
X109978Y-87531
X110201Y-68414
X110613Y-63880
X110740Y-90833
X110825Y-42665
X110825Y-54665
X110825Y-83665
X110825Y-95665
X110825Y-106665
X110825Y-111665
X111375Y-69751
X111502Y-63203
X111825Y-100665
X111883Y-82197
X112264Y-84864
X112264Y-87023
X112315Y-91925
X112772Y-83035
X113026Y-57813
X113153Y-87531
X113280Y-69751
X113825Y-97665
X113825Y-103665
X113825Y-108665
X113889Y-82758
X114825Y-43665
X114825Y-55665
X114825Y-60665
X115185Y-76101
X115439Y-44605
X115515Y-92128
X115693Y-72545
X115767Y-82758
X115820Y-45621
X115825Y-94665
X115825Y-111665
X115978Y-83687
X116825Y-99665
X116825Y-105665
X116836Y-45621
X117217Y-76101
X117471Y-82197
X117703Y-84389
X117725Y-68862
X117825Y-45665
X117825Y-57665
X117825Y-62665
X117825Y-77665
X118487Y-83721
X118825Y-66665
X118825Y-92665
X118825Y-102665
X118825Y-108665
X118868Y-45621
X119825Y-96665
X119884Y-82197
X120825Y-55665
X120825Y-60665
X120825Y-74665
X121825Y-64665
X121825Y-82665
X121825Y-99665
X121825Y-104665
X121916Y-87531
X122678Y-91595
X122825Y-93665
X123825Y-67665
X123825Y-72665
X123825Y-88665
X124825Y-96665
X124825Y-101665
X124964Y-61242
X125825Y-45665
X125825Y-78665
X125825Y-83665
X126825Y-70665
X126825Y-104665
X127825Y-42665
X127825Y-89665
X127825Y-94665
X127825Y-99665
X127825Y-108665
X128825Y-62665
X128825Y-73665
X128825Y-80665
X129825Y-50665
X129825Y-68665
X129825Y-102665
X129825Y-111665
X130825Y-44665
X130825Y-76665
X130825Y-96665
X130825Y-106665
X131193Y-56803
X132825Y-93665
X132825Y-99665
X132825Y-109665
T3
X124075Y-75466
X125345Y-75466
X126615Y-75466
X127885Y-75466
X142047Y-43820
X143317Y-43820
X144587Y-43820
X145857Y-43820
X98548Y-52098
X98548Y-53368
X98548Y-54638
X98548Y-55908
T4
X100645Y-74069
X100645Y-76069
X102645Y-74069
X102645Y-76069
X104645Y-74069
X104645Y-76069
X106645Y-74069
X106645Y-76069
X108645Y-74069
X108645Y-76069
X110645Y-74069
X110645Y-76069
X112645Y-74069
X112645Y-76069
T5
X79259Y-48355
X81034Y-61325
X81799Y-48355
X82254Y-58765
X83574Y-61325
X84814Y-58785
X86114Y-61325
X87364Y-58785
X88654Y-61325
X89914Y-58785
X89969Y-48355
X92509Y-48355
X130425Y-79657
X130425Y-82197
X130425Y-84737
X130425Y-87277
X130425Y-89817
X118360Y-70894
X118360Y-73434
T6
X77212Y-89740
X77212Y-92280
X77212Y-94820
X77212Y-97360
X77212Y-99900
X77212Y-102440
X77212Y-104980
X77212Y-107520
X79752Y-89740
X79752Y-92280
X79752Y-94820
X79752Y-97360
X79752Y-99900
X79752Y-102440
X79752Y-104980
X79752Y-107520
X141641Y-64733
X141641Y-67273
X144181Y-64733
X144181Y-67273
X146721Y-64733
X146721Y-67273
X149260Y-64733
X149260Y-67273
X151801Y-64733
X151801Y-67273
T7
X78139Y-55535
X93629Y-55465
T0
M30
