EESchema Schematic File Version 4
LIBS:iccfpga-devboard-cache
EELAYER 29 0
EELAYER END
$Descr A3 16535 11693
encoding utf-8
Sheet 1 1
Title ""
Date ""
Rev ""
Comp ""
Comment1 ""
Comment2 ""
Comment3 ""
Comment4 ""
$EndDescr
$Comp
L mylib:W5500 U1
U 1 1 5C51A2DD
P 10100 3500
F 0 "U1" H 10200 3600 50  0000 L CNN
F 1 "W5500" H 10150 3500 50  0000 L CNN
F 2 "Package_QFP:LQFP-48_7x7mm_P0.5mm" H 10100 3400 50  0001 C CNN
F 3 "" H 10100 3400 50  0001 C CNN
	1    10100 3500
	1    0    0    -1  
$EndComp
$Comp
L Device:R R9
U 1 1 5C51A4ED
P 11700 2950
F 0 "R9" V 11620 2950 50  0000 C CNN
F 1 "0" V 11700 2950 50  0000 C CNN
F 2 "Resistor_SMD:R_0603_1608Metric" V 11630 2950 50  0001 C CNN
F 3 "~" H 11700 2950 50  0001 C CNN
	1    11700 2950
	0    1    1    0   
$EndComp
$Comp
L Device:R R10
U 1 1 5C51A523
P 11700 3050
F 0 "R10" V 11780 3050 50  0000 C CNN
F 1 "0" V 11700 3050 50  0000 C CNN
F 2 "Resistor_SMD:R_0603_1608Metric" V 11630 3050 50  0001 C CNN
F 3 "~" H 11700 3050 50  0001 C CNN
	1    11700 3050
	0    1    1    0   
$EndComp
$Comp
L Device:R R11
U 1 1 5C51A55D
P 11700 3350
F 0 "R11" V 11620 3350 50  0000 C CNN
F 1 "0" V 11700 3350 50  0000 C CNN
F 2 "Resistor_SMD:R_0603_1608Metric" V 11630 3350 50  0001 C CNN
F 3 "~" H 11700 3350 50  0001 C CNN
	1    11700 3350
	0    1    1    0   
$EndComp
$Comp
L Device:R R12
U 1 1 5C51A587
P 11700 3450
F 0 "R12" V 11780 3440 50  0000 C CNN
F 1 "0" V 11700 3450 50  0000 C CNN
F 2 "Resistor_SMD:R_0603_1608Metric" V 11630 3450 50  0001 C CNN
F 3 "~" H 11700 3450 50  0001 C CNN
	1    11700 3450
	0    1    1    0   
$EndComp
Wire Wire Line
	11150 2950 11550 2950
Wire Wire Line
	11150 3050 11550 3050
Wire Wire Line
	11150 3350 11550 3350
Wire Wire Line
	11150 3450 11550 3450
$Comp
L Device:R R14
U 1 1 5C51ACA9
P 11950 2700
F 0 "R14" V 11870 2590 50  0000 L CNN
F 1 "49R" V 11950 2620 50  0000 L CNN
F 2 "Resistor_SMD:R_0603_1608Metric" V 11880 2700 50  0001 C CNN
F 3 "~" H 11950 2700 50  0001 C CNN
	1    11950 2700
	1    0    0    -1  
$EndComp
$Comp
L Device:R R16
U 1 1 5C51ACF1
P 12100 2700
F 0 "R16" V 12030 2590 50  0000 L CNN
F 1 "49R" V 12100 2620 50  0000 L CNN
F 2 "Resistor_SMD:R_0603_1608Metric" V 12030 2700 50  0001 C CNN
F 3 "~" H 12100 2700 50  0001 C CNN
	1    12100 2700
	1    0    0    -1  
$EndComp
$Comp
L Device:R R17
U 1 1 5C51AD13
P 12250 2700
F 0 "R17" V 12180 2590 50  0000 L CNN
F 1 "10R" V 12250 2630 50  0000 L CNN
F 2 "Resistor_SMD:R_0603_1608Metric" V 12180 2700 50  0001 C CNN
F 3 "~" H 12250 2700 50  0001 C CNN
	1    12250 2700
	1    0    0    -1  
$EndComp
Wire Wire Line
	11850 2950 12100 2950
Wire Wire Line
	12700 2950 12700 3250
Wire Wire Line
	12700 3250 13000 3250
Wire Wire Line
	11850 3050 11950 3050
Wire Wire Line
	13000 3150 12250 3150
Wire Wire Line
	12250 3150 12250 2850
Wire Wire Line
	12100 2850 12100 2950
Connection ~ 12100 2950
Wire Wire Line
	12100 2950 12700 2950
Wire Wire Line
	11950 2850 11950 3050
Connection ~ 11950 3050
Wire Wire Line
	11950 3050 13000 3050
Wire Wire Line
	11950 2550 11950 2450
Wire Wire Line
	11950 2450 12100 2450
Wire Wire Line
	12250 2450 12250 2550
Wire Wire Line
	12100 2550 12100 2450
Connection ~ 12100 2450
Wire Wire Line
	12100 2450 12250 2450
$Comp
L Device:C C7
U 1 1 5C51B427
P 12250 3350
F 0 "C7" H 12365 3396 50  0000 L CNN
F 1 "22n" H 12365 3305 50  0000 L CNN
F 2 "Capacitor_SMD:C_0603_1608Metric" H 12288 3200 50  0001 C CNN
F 3 "~" H 12250 3350 50  0001 C CNN
	1    12250 3350
	1    0    0    -1  
$EndComp
Wire Wire Line
	12250 3150 12250 3200
Connection ~ 12250 3150
Wire Wire Line
	12250 3550 12250 3500
$Comp
L Device:C C8
U 1 1 5C51BA28
P 12250 4050
F 0 "C8" V 12290 4140 50  0000 C CNN
F 1 "6.8n" V 12210 4170 50  0000 C CNN
F 2 "Capacitor_SMD:C_0603_1608Metric" H 12288 3900 50  0001 C CNN
F 3 "~" H 12250 4050 50  0001 C CNN
	1    12250 4050
	0    1    1    0   
$EndComp
$Comp
L Device:C C9
U 1 1 5C51BA76
P 12250 4250
F 0 "C9" V 12290 4340 50  0000 C CNN
F 1 "6.8n" V 12210 4380 50  0000 C CNN
F 2 "Capacitor_SMD:C_0603_1608Metric" H 12288 4100 50  0001 C CNN
F 3 "~" H 12250 4250 50  0001 C CNN
	1    12250 4250
	0    1    1    0   
$EndComp
Wire Wire Line
	11850 3350 12050 3350
Wire Wire Line
	12050 3350 12050 4050
Wire Wire Line
	12050 4050 12100 4050
Wire Wire Line
	11850 3450 11900 3450
Wire Wire Line
	11900 3450 11900 4250
Wire Wire Line
	11900 4250 12100 4250
$Comp
L Device:R R13
U 1 1 5C51C471
P 11900 4500
F 0 "R13" V 11820 4390 50  0000 L CNN
F 1 "49R" V 11900 4420 50  0000 L CNN
F 2 "Resistor_SMD:R_0603_1608Metric" V 11830 4500 50  0001 C CNN
F 3 "~" H 11900 4500 50  0001 C CNN
	1    11900 4500
	1    0    0    -1  
$EndComp
$Comp
L Device:R R15
U 1 1 5C51C4D7
P 12050 4500
F 0 "R15" V 12130 4400 50  0000 L CNN
F 1 "49R" V 12050 4430 50  0000 L CNN
F 2 "Resistor_SMD:R_0603_1608Metric" V 11980 4500 50  0001 C CNN
F 3 "~" H 12050 4500 50  0001 C CNN
	1    12050 4500
	1    0    0    -1  
$EndComp
$Comp
L Device:C C6
U 1 1 5C51C505
P 12050 5000
F 0 "C6" H 11935 4954 50  0000 R CNN
F 1 "15n" H 11935 5045 50  0000 R CNN
F 2 "Capacitor_SMD:C_0603_1608Metric" H 12088 4850 50  0001 C CNN
F 3 "~" H 12050 5000 50  0001 C CNN
	1    12050 5000
	-1   0    0    1   
$EndComp
Wire Wire Line
	13000 3450 12700 3450
Wire Wire Line
	12700 3450 12700 4750
Wire Wire Line
	12700 4750 12050 4750
Wire Wire Line
	11900 4750 11900 4650
Wire Wire Line
	12050 4650 12050 4750
Connection ~ 12050 4750
Wire Wire Line
	12050 4750 11900 4750
Wire Wire Line
	12050 4850 12050 4750
Wire Wire Line
	11900 4350 11900 4250
Connection ~ 11900 4250
Wire Wire Line
	12050 4350 12050 4050
Connection ~ 12050 4050
Wire Wire Line
	12050 5250 12050 5150
Wire Wire Line
	12400 4050 12750 4050
Wire Wire Line
	12750 4050 12750 3550
Wire Wire Line
	12750 3550 13000 3550
Wire Wire Line
	12400 4250 12800 4250
Wire Wire Line
	12800 4250 12800 3350
Wire Wire Line
	12800 3350 13000 3350
Wire Wire Line
	13600 2850 13600 2750
Wire Wire Line
	13600 2750 13700 2750
Wire Wire Line
	13700 2750 13700 2800
Wire Wire Line
	12950 3800 12950 3750
Wire Wire Line
	12950 3750 13000 3750
$Comp
L Device:R R18
U 1 1 5C520D37
P 14100 4750
F 0 "R18" V 14180 4850 50  0000 R CNN
F 1 "330" V 14090 4820 50  0000 R CNN
F 2 "Resistor_SMD:R_0603_1608Metric" V 14030 4750 50  0001 C CNN
F 3 "~" H 14100 4750 50  0001 C CNN
	1    14100 4750
	-1   0    0    1   
$EndComp
$Comp
L Device:R R19
U 1 1 5C520DB1
P 14250 4750
F 0 "R19" V 14160 4800 50  0000 C CNN
F 1 "330" V 14240 4750 50  0000 C CNN
F 2 "Resistor_SMD:R_0603_1608Metric" V 14180 4750 50  0001 C CNN
F 3 "~" H 14250 4750 50  0001 C CNN
	1    14250 4750
	-1   0    0    1   
$EndComp
$Comp
L power:+3V3 #PWR0105
U 1 1 5C520E9D
P 14100 3000
F 0 "#PWR0105" H 14100 2850 50  0001 C CNN
F 1 "+3V3" H 14115 3173 50  0000 C CNN
F 2 "" H 14100 3000 50  0001 C CNN
F 3 "" H 14100 3000 50  0001 C CNN
	1    14100 3000
	1    0    0    -1  
$EndComp
Wire Wire Line
	14100 3000 14100 3050
Wire Wire Line
	14100 3650 14000 3650
Wire Wire Line
	14000 3050 14100 3050
Connection ~ 14100 3050
Wire Wire Line
	14100 3050 14100 3650
Wire Wire Line
	14000 3750 14100 3750
Wire Wire Line
	14000 3150 14250 3150
Wire Wire Line
	9050 3850 8750 3850
Wire Wire Line
	8750 3850 8750 5650
Wire Wire Line
	14100 3750 14100 4600
Wire Wire Line
	14100 4900 14100 5650
Wire Wire Line
	9050 4050 8850 4050
Wire Wire Line
	8850 4050 8850 5750
Wire Wire Line
	14250 5750 14250 4900
Wire Wire Line
	14250 3150 14250 4600
$Comp
L power:+3.3VA #PWR0106
U 1 1 5C52FC8E
P 12100 2350
F 0 "#PWR0106" H 12100 2200 50  0001 C CNN
F 1 "+3.3VA" H 12115 2523 50  0000 C CNN
F 2 "" H 12100 2350 50  0001 C CNN
F 3 "" H 12100 2350 50  0001 C CNN
	1    12100 2350
	1    0    0    -1  
$EndComp
Wire Wire Line
	12100 2350 12100 2450
$Comp
L power:+3.3VA #PWR0107
U 1 1 5C531481
P 11200 3250
F 0 "#PWR0107" H 11200 3100 50  0001 C CNN
F 1 "+3.3VA" V 11215 3378 50  0000 L CNN
F 2 "" H 11200 3250 50  0001 C CNN
F 3 "" H 11200 3250 50  0001 C CNN
	1    11200 3250
	0    1    1    0   
$EndComp
$Comp
L power:+3.3VA #PWR0108
U 1 1 5C538226
P 11200 3950
F 0 "#PWR0108" H 11200 3800 50  0001 C CNN
F 1 "+3.3VA" V 11250 3900 50  0000 L CNN
F 2 "" H 11200 3950 50  0001 C CNN
F 3 "" H 11200 3950 50  0001 C CNN
	1    11200 3950
	0    1    1    0   
$EndComp
$Comp
L Device:R R8
U 1 1 5C53DC5C
P 11500 4050
F 0 "R8" H 11450 4020 50  0000 R CNN
F 1 "12.4k" H 11450 4090 50  0000 R CNN
F 2 "Resistor_SMD:R_0603_1608Metric" V 11430 4050 50  0001 C CNN
F 3 "~" H 11500 4050 50  0001 C CNN
	1    11500 4050
	-1   0    0    1   
$EndComp
Wire Wire Line
	11500 4250 11500 4200
Wire Wire Line
	11150 3850 11500 3850
Wire Wire Line
	11500 3850 11500 3900
Wire Wire Line
	10550 4600 10550 4550
$Comp
L power:+3.3VA #PWR0109
U 1 1 5C551BED
P 10250 4600
F 0 "#PWR0109" H 10250 4450 50  0001 C CNN
F 1 "+3.3VA" V 10250 4840 50  0000 C CNN
F 2 "" H 10250 4600 50  0001 C CNN
F 3 "" H 10250 4600 50  0001 C CNN
	1    10250 4600
	-1   0    0    1   
$EndComp
$Comp
L power:+3.3VA #PWR0110
U 1 1 5C551C76
P 10450 4600
F 0 "#PWR0110" H 10450 4450 50  0001 C CNN
F 1 "+3.3VA" V 10450 4850 50  0000 C CNN
F 2 "" H 10450 4600 50  0001 C CNN
F 3 "" H 10450 4600 50  0001 C CNN
	1    10450 4600
	-1   0    0    1   
$EndComp
$Comp
L power:+3.3VA #PWR0111
U 1 1 5C551CA5
P 9850 4600
F 0 "#PWR0111" H 9850 4450 50  0001 C CNN
F 1 "+3.3VA" V 9890 4700 50  0000 C CNN
F 2 "" H 9850 4600 50  0001 C CNN
F 3 "" H 9850 4600 50  0001 C CNN
	1    9850 4600
	-1   0    0    1   
$EndComp
Wire Wire Line
	9850 4550 9850 4600
Wire Wire Line
	10050 4550 10050 4600
Wire Wire Line
	10250 4550 10250 4600
Wire Wire Line
	10350 4550 10350 4600
Wire Wire Line
	10450 4550 10450 4600
Wire Wire Line
	11200 3950 11150 3950
$Comp
L power:+3.3VA #PWR0112
U 1 1 5C55FF0D
P 11200 3650
F 0 "#PWR0112" H 11200 3500 50  0001 C CNN
F 1 "+3.3VA" V 11200 3760 50  0000 L CNN
F 2 "" H 11200 3650 50  0001 C CNN
F 3 "" H 11200 3650 50  0001 C CNN
	1    11200 3650
	0    1    1    0   
$EndComp
Wire Wire Line
	11200 3650 11150 3650
Wire Wire Line
	11200 3250 11150 3250
Wire Wire Line
	11200 3150 11150 3150
Wire Wire Line
	11200 3750 11150 3750
Wire Wire Line
	10650 2400 10650 2450
$Comp
L Device:C C5
U 1 1 5C56A1EC
P 9950 4900
F 0 "C5" H 10050 4830 50  0000 R CNN
F 1 "4.7µ" H 10000 5010 50  0000 R CNN
F 2 "Capacitor_SMD:C_0603_1608Metric" H 9988 4750 50  0001 C CNN
F 3 "~" H 9950 4900 50  0001 C CNN
	1    9950 4900
	-1   0    0    1   
$EndComp
$Comp
L Device:C C4
U 1 1 5C56A268
P 9750 4900
F 0 "C4" H 9870 4830 50  0000 R CNN
F 1 "10n" H 9800 4990 50  0000 R CNN
F 2 "Capacitor_SMD:C_0603_1608Metric" H 9788 4750 50  0001 C CNN
F 3 "~" H 9750 4900 50  0001 C CNN
	1    9750 4900
	-1   0    0    1   
$EndComp
Wire Wire Line
	9950 4550 9950 4750
Wire Wire Line
	9750 4550 9750 4750
Wire Wire Line
	9750 5050 9750 5100
Wire Wire Line
	9950 5050 9950 5100
$Comp
L power:+3V3 #PWR0113
U 1 1 5C572493
P 9000 3750
F 0 "#PWR0113" H 9000 3600 50  0001 C CNN
F 1 "+3V3" V 9015 3878 50  0000 L CNN
F 2 "" H 9000 3750 50  0001 C CNN
F 3 "" H 9000 3750 50  0001 C CNN
	1    9000 3750
	0    -1   -1   0   
$EndComp
$Comp
L power:GND #PWR0114
U 1 1 5C57256C
P 9000 3650
F 0 "#PWR0114" H 9000 3400 50  0001 C CNN
F 1 "GND" V 9005 3522 50  0000 R CNN
F 2 "" H 9000 3650 50  0001 C CNN
F 3 "" H 9000 3650 50  0001 C CNN
	1    9000 3650
	0    1    1    0   
$EndComp
Wire Wire Line
	9000 3650 9050 3650
Wire Wire Line
	9000 3750 9050 3750
$Comp
L Oscillator:XO32 X1
U 1 1 5C578EE9
P 7850 4100
F 0 "X1" H 8191 4146 50  0000 L CNN
F 1 "25MHz" H 8191 4055 50  0000 L CNN
F 2 "Oscillator:Oscillator_SMD_EuroQuartz_XO32-4Pin_3.2x2.5mm" H 8550 3750 50  0001 C CNN
F 3 "http://cdn-reichelt.de/documents/datenblatt/B400/XO32.pdf" H 7750 4100 50  0001 C CNN
	1    7850 4100
	1    0    0    -1  
$EndComp
$Comp
L power:GND #PWR0115
U 1 1 5C57B4CB
P 7850 4400
F 0 "#PWR0115" H 7850 4150 50  0001 C CNN
F 1 "GND" H 7855 4227 50  0000 C CNN
F 2 "" H 7850 4400 50  0001 C CNN
F 3 "" H 7850 4400 50  0001 C CNN
	1    7850 4400
	1    0    0    -1  
$EndComp
$Comp
L power:+3V3 #PWR0116
U 1 1 5C57B56E
P 7850 3700
F 0 "#PWR0116" H 7850 3550 50  0001 C CNN
F 1 "+3V3" H 7865 3873 50  0000 C CNN
F 2 "" H 7850 3700 50  0001 C CNN
F 3 "" H 7850 3700 50  0001 C CNN
	1    7850 3700
	1    0    0    -1  
$EndComp
Wire Wire Line
	8150 4100 8500 4100
Wire Wire Line
	8500 4100 8500 3550
Wire Wire Line
	8500 3550 9050 3550
Wire Wire Line
	8250 2950 8600 2950
Wire Wire Line
	8250 3050 9050 3050
Wire Wire Line
	8250 3150 9050 3150
Wire Wire Line
	8250 3250 9050 3250
Wire Wire Line
	8250 3350 8500 3350
Wire Wire Line
	8250 2250 8700 2250
Wire Wire Line
	9550 2250 9550 2450
$Comp
L Device:R R5
U 1 1 5C59C344
P 10150 2150
F 0 "R5" V 10100 1950 50  0000 L CNN
F 1 "10k" V 10150 2070 50  0000 L CNN
F 2 "Resistor_SMD:R_0603_1608Metric" V 10080 2150 50  0001 C CNN
F 3 "~" H 10150 2150 50  0001 C CNN
	1    10150 2150
	1    0    0    -1  
$EndComp
$Comp
L Device:R R6
U 1 1 5C59C3CA
P 10250 2150
F 0 "R6" V 10200 1950 50  0000 L CNN
F 1 "10k" V 10250 2070 50  0000 L CNN
F 2 "Resistor_SMD:R_0603_1608Metric" V 10180 2150 50  0001 C CNN
F 3 "~" H 10250 2150 50  0001 C CNN
	1    10250 2150
	1    0    0    -1  
$EndComp
$Comp
L Device:R R7
U 1 1 5C59C412
P 10350 2150
F 0 "R7" V 10300 1950 50  0000 L CNN
F 1 "10k" V 10350 2070 50  0000 L CNN
F 2 "Resistor_SMD:R_0603_1608Metric" V 10280 2150 50  0001 C CNN
F 3 "~" H 10350 2150 50  0001 C CNN
	1    10350 2150
	1    0    0    -1  
$EndComp
$Comp
L power:+3V3 #PWR0117
U 1 1 5C59CBE7
P 10250 1900
F 0 "#PWR0117" H 10250 1750 50  0001 C CNN
F 1 "+3V3" H 10265 2073 50  0000 C CNN
F 2 "" H 10250 1900 50  0001 C CNN
F 3 "" H 10250 1900 50  0001 C CNN
	1    10250 1900
	1    0    0    -1  
$EndComp
Wire Wire Line
	10150 2000 10150 1950
Wire Wire Line
	10150 1950 10250 1950
Wire Wire Line
	10350 1950 10350 2000
Wire Wire Line
	10250 2000 10250 1950
Connection ~ 10250 1950
Wire Wire Line
	10250 1950 10350 1950
Wire Wire Line
	10250 1900 10250 1950
Wire Wire Line
	10150 2300 10150 2450
Wire Wire Line
	10250 2300 10250 2450
Wire Wire Line
	10350 2300 10350 2450
$Comp
L Device:R R1
U 1 1 5C5B38E1
P 8500 2000
F 0 "R1" V 8450 1800 50  0000 L CNN
F 1 "10k" V 8500 1920 50  0000 L CNN
F 2 "Resistor_SMD:R_0603_1608Metric" V 8430 2000 50  0001 C CNN
F 3 "~" H 8500 2000 50  0001 C CNN
	1    8500 2000
	1    0    0    -1  
$EndComp
$Comp
L Device:R R2
U 1 1 5C5B3985
P 8600 2000
F 0 "R2" V 8550 1800 50  0000 L CNN
F 1 "10k" V 8600 1920 50  0000 L CNN
F 2 "Resistor_SMD:R_0603_1608Metric" V 8530 2000 50  0001 C CNN
F 3 "~" H 8600 2000 50  0001 C CNN
	1    8600 2000
	1    0    0    -1  
$EndComp
Wire Wire Line
	8500 2150 8500 3350
Connection ~ 8500 3350
Wire Wire Line
	8500 3350 9050 3350
Wire Wire Line
	8600 2150 8600 2950
Connection ~ 8600 2950
Wire Wire Line
	8600 2950 9050 2950
$Comp
L Device:R R3
U 1 1 5C5BE352
P 8700 2000
F 0 "R3" V 8650 1800 50  0000 L CNN
F 1 "10k" V 8700 1920 50  0000 L CNN
F 2 "Resistor_SMD:R_0603_1608Metric" V 8630 2000 50  0001 C CNN
F 3 "~" H 8700 2000 50  0001 C CNN
	1    8700 2000
	1    0    0    -1  
$EndComp
Wire Wire Line
	8700 2150 8700 2250
Connection ~ 8700 2250
Wire Wire Line
	8700 2250 9550 2250
$Comp
L power:+3V3 #PWR0118
U 1 1 5C5C1EC9
P 8600 1750
F 0 "#PWR0118" H 8600 1600 50  0001 C CNN
F 1 "+3V3" H 8615 1923 50  0000 C CNN
F 2 "" H 8600 1750 50  0001 C CNN
F 3 "" H 8600 1750 50  0001 C CNN
	1    8600 1750
	1    0    0    -1  
$EndComp
Wire Wire Line
	8500 1850 8500 1800
Wire Wire Line
	8500 1800 8600 1800
Wire Wire Line
	8700 1800 8700 1850
Wire Wire Line
	8600 1850 8600 1800
Connection ~ 8600 1800
Wire Wire Line
	8600 1800 8700 1800
Wire Wire Line
	8600 1800 8600 1750
$Comp
L Device:R R4
U 1 1 5C5CF04A
P 9400 4700
F 0 "R4" V 9350 4500 50  0000 L CNN
F 1 "10k" V 9400 4620 50  0000 L CNN
F 2 "Resistor_SMD:R_0603_1608Metric" V 9330 4700 50  0001 C CNN
F 3 "~" H 9400 4700 50  0001 C CNN
	1    9400 4700
	0    1    1    0   
$EndComp
$Comp
L power:GND #PWR0119
U 1 1 5C5CF478
P 9150 4700
F 0 "#PWR0119" H 9150 4450 50  0001 C CNN
F 1 "GND" V 9155 4572 50  0000 R CNN
F 2 "" H 9150 4700 50  0001 C CNN
F 3 "" H 9150 4700 50  0001 C CNN
	1    9150 4700
	0    1    1    0   
$EndComp
Wire Wire Line
	9150 4700 9250 4700
Wire Wire Line
	9550 4700 9650 4700
Wire Wire Line
	9650 4700 9650 4550
Wire Wire Line
	7850 3700 7850 3750
Wire Wire Line
	7850 3750 7500 3750
Wire Wire Line
	7500 3750 7500 4100
Wire Wire Line
	7500 4100 7550 4100
Connection ~ 7850 3750
Wire Wire Line
	7850 3750 7850 3800
$Comp
L Device:C C1
U 1 1 5C5EE638
P 7200 4150
F 0 "C1" H 7085 4104 50  0000 R CNN
F 1 "100n" H 7085 4195 50  0000 R CNN
F 2 "Capacitor_SMD:C_0603_1608Metric" H 7238 4000 50  0001 C CNN
F 3 "~" H 7200 4150 50  0001 C CNN
	1    7200 4150
	-1   0    0    1   
$EndComp
$Comp
L power:+3V3 #PWR0128
U 1 1 5C5EE783
P 7200 3900
F 0 "#PWR0128" H 7200 3750 50  0001 C CNN
F 1 "+3V3" H 7215 4073 50  0000 C CNN
F 2 "" H 7200 3900 50  0001 C CNN
F 3 "" H 7200 3900 50  0001 C CNN
	1    7200 3900
	1    0    0    -1  
$EndComp
$Comp
L power:GND #PWR0129
U 1 1 5C5EE7C8
P 7200 4400
F 0 "#PWR0129" H 7200 4150 50  0001 C CNN
F 1 "GND" H 7205 4227 50  0000 C CNN
F 2 "" H 7200 4400 50  0001 C CNN
F 3 "" H 7200 4400 50  0001 C CNN
	1    7200 4400
	1    0    0    -1  
$EndComp
Wire Wire Line
	7200 4400 7200 4300
Wire Wire Line
	7200 4000 7200 3900
$Comp
L mylib:SI-60024-F U2
U 1 1 5C608DAA
P 13600 3400
F 0 "U2" H 13700 3922 50  0000 C CNN
F 1 "SI-60024-F" H 13700 4013 50  0000 C CNN
F 2 "myfootprints:SI-60024-F" H 13600 3400 50  0001 C CNN
F 3 "" H 13600 3400 50  0001 C CNN
	1    13600 3400
	-1   0    0    1   
$EndComp
Wire Wire Line
	8750 5650 14100 5650
Wire Wire Line
	8850 5750 14250 5750
$Comp
L Device:Ferrite_Bead_Small L1
U 1 1 5C63E747
P 12350 1350
F 0 "L1" V 12113 1350 50  0000 C CNN
F 1 "Ferrite_Bead_Small" V 12204 1350 50  0000 C CNN
F 2 "Inductor_SMD:L_0805_2012Metric" V 12280 1350 50  0001 C CNN
F 3 "~" H 12350 1350 50  0001 C CNN
	1    12350 1350
	0    1    1    0   
$EndComp
$Comp
L power:+3.3VA #PWR0133
U 1 1 5C63E82B
P 14050 1250
F 0 "#PWR0133" H 14050 1100 50  0001 C CNN
F 1 "+3.3VA" H 14065 1423 50  0000 C CNN
F 2 "" H 14050 1250 50  0001 C CNN
F 3 "" H 14050 1250 50  0001 C CNN
	1    14050 1250
	1    0    0    -1  
$EndComp
$Comp
L Device:C C10
U 1 1 5C63E874
P 12550 1550
F 0 "C10" H 12550 1620 50  0000 L CNN
F 1 "100n" H 12500 1470 50  0000 L CNN
F 2 "Capacitor_SMD:C_0603_1608Metric" H 12588 1400 50  0001 C CNN
F 3 "~" H 12550 1550 50  0001 C CNN
	1    12550 1550
	1    0    0    -1  
$EndComp
$Comp
L Device:C C11
U 1 1 5C63ED4E
P 12800 1550
F 0 "C11" H 12800 1620 50  0000 L CNN
F 1 "100n" H 12750 1470 50  0000 L CNN
F 2 "Capacitor_SMD:C_0603_1608Metric" H 12838 1400 50  0001 C CNN
F 3 "~" H 12800 1550 50  0001 C CNN
	1    12800 1550
	1    0    0    -1  
$EndComp
$Comp
L Device:C C12
U 1 1 5C63EDA8
P 13050 1550
F 0 "C12" H 13050 1620 50  0000 L CNN
F 1 "100n" H 13000 1470 50  0000 L CNN
F 2 "Capacitor_SMD:C_0603_1608Metric" H 13088 1400 50  0001 C CNN
F 3 "~" H 13050 1550 50  0001 C CNN
	1    13050 1550
	1    0    0    -1  
$EndComp
$Comp
L Device:C C13
U 1 1 5C63EE02
P 13300 1550
F 0 "C13" H 13300 1620 50  0000 L CNN
F 1 "100n" H 13250 1470 50  0000 L CNN
F 2 "Capacitor_SMD:C_0603_1608Metric" H 13338 1400 50  0001 C CNN
F 3 "~" H 13300 1550 50  0001 C CNN
	1    13300 1550
	1    0    0    -1  
$EndComp
$Comp
L Device:C C14
U 1 1 5C63F352
P 13550 1550
F 0 "C14" H 13550 1620 50  0000 L CNN
F 1 "100n" H 13500 1470 50  0000 L CNN
F 2 "Capacitor_SMD:C_0603_1608Metric" H 13588 1400 50  0001 C CNN
F 3 "~" H 13550 1550 50  0001 C CNN
	1    13550 1550
	1    0    0    -1  
$EndComp
$Comp
L Device:C C15
U 1 1 5C63F3B0
P 13800 1550
F 0 "C15" H 13800 1620 50  0000 L CNN
F 1 "100n" H 13750 1470 50  0000 L CNN
F 2 "Capacitor_SMD:C_0603_1608Metric" H 13838 1400 50  0001 C CNN
F 3 "~" H 13800 1550 50  0001 C CNN
	1    13800 1550
	1    0    0    -1  
$EndComp
$Comp
L Device:C C16
U 1 1 5C63F969
P 14050 1550
F 0 "C16" H 14050 1620 50  0000 L CNN
F 1 "10µ" H 14000 1470 50  0000 L CNN
F 2 "Capacitor_SMD:C_0603_1608Metric" H 14088 1400 50  0001 C CNN
F 3 "~" H 14050 1550 50  0001 C CNN
	1    14050 1550
	1    0    0    -1  
$EndComp
Wire Wire Line
	12450 1350 12550 1350
Wire Wire Line
	14050 1350 14050 1400
Wire Wire Line
	13800 1400 13800 1350
Connection ~ 13800 1350
Wire Wire Line
	13800 1350 14050 1350
Wire Wire Line
	13550 1400 13550 1350
Connection ~ 13550 1350
Wire Wire Line
	13550 1350 13800 1350
Wire Wire Line
	13300 1400 13300 1350
Connection ~ 13300 1350
Wire Wire Line
	13300 1350 13550 1350
Wire Wire Line
	13050 1400 13050 1350
Connection ~ 13050 1350
Wire Wire Line
	13050 1350 13300 1350
Wire Wire Line
	12800 1400 12800 1350
Connection ~ 12800 1350
Wire Wire Line
	12800 1350 13050 1350
Wire Wire Line
	12550 1400 12550 1350
Connection ~ 12550 1350
Wire Wire Line
	12550 1350 12800 1350
Wire Wire Line
	14050 1750 14050 1700
Wire Wire Line
	13800 1700 13800 1750
Wire Wire Line
	13550 1750 13550 1700
Wire Wire Line
	13300 1700 13300 1750
Wire Wire Line
	13050 1750 13050 1700
Wire Wire Line
	12800 1700 12800 1750
Wire Wire Line
	12550 1750 12550 1700
Wire Wire Line
	14050 1250 14050 1350
Connection ~ 14050 1350
$Comp
L power:+3V3 #PWR0141
U 1 1 5C69F3F8
P 12150 1350
F 0 "#PWR0141" H 12150 1200 50  0001 C CNN
F 1 "+3V3" V 12165 1478 50  0000 L CNN
F 2 "" H 12150 1350 50  0001 C CNN
F 3 "" H 12150 1350 50  0001 C CNN
	1    12150 1350
	0    -1   -1   0   
$EndComp
Wire Wire Line
	12150 1350 12250 1350
$Comp
L Device:C C2
U 1 1 5C6A744A
P 8150 4800
F 0 "C2" H 8150 4870 50  0000 L CNN
F 1 "100n" H 8100 4720 50  0000 L CNN
F 2 "Capacitor_SMD:C_0603_1608Metric" H 8188 4650 50  0001 C CNN
F 3 "~" H 8150 4800 50  0001 C CNN
	1    8150 4800
	1    0    0    -1  
$EndComp
$Comp
L Device:C C3
U 1 1 5C6A7451
P 8400 4800
F 0 "C3" H 8400 4870 50  0000 L CNN
F 1 "10µ" H 8350 4720 50  0000 L CNN
F 2 "Capacitor_SMD:C_0603_1608Metric" H 8438 4650 50  0001 C CNN
F 3 "~" H 8400 4800 50  0001 C CNN
	1    8400 4800
	1    0    0    -1  
$EndComp
Wire Wire Line
	8400 5000 8400 4950
Wire Wire Line
	8150 4950 8150 5000
$Comp
L power:GND #PWR0142
U 1 1 5C6AE88C
P 8150 5000
F 0 "#PWR0142" H 8150 4750 50  0001 C CNN
F 1 "GND" H 8155 4827 50  0000 C CNN
F 2 "" H 8150 5000 50  0001 C CNN
F 3 "" H 8150 5000 50  0001 C CNN
	1    8150 5000
	1    0    0    -1  
$EndComp
$Comp
L power:GND #PWR0143
U 1 1 5C6AEDE7
P 8400 5000
F 0 "#PWR0143" H 8400 4750 50  0001 C CNN
F 1 "GND" H 8405 4827 50  0000 C CNN
F 2 "" H 8400 5000 50  0001 C CNN
F 3 "" H 8400 5000 50  0001 C CNN
	1    8400 5000
	1    0    0    -1  
$EndComp
$Comp
L power:+3V3 #PWR0144
U 1 1 5C6AF342
P 8150 4650
F 0 "#PWR0144" H 8150 4500 50  0001 C CNN
F 1 "+3V3" H 8165 4823 50  0000 C CNN
F 2 "" H 8150 4650 50  0001 C CNN
F 3 "" H 8150 4650 50  0001 C CNN
	1    8150 4650
	1    0    0    -1  
$EndComp
$Comp
L power:+3V3 #PWR0145
U 1 1 5C6AF447
P 8400 4650
F 0 "#PWR0145" H 8400 4500 50  0001 C CNN
F 1 "+3V3" H 8415 4823 50  0000 C CNN
F 2 "" H 8400 4650 50  0001 C CNN
F 3 "" H 8400 4650 50  0001 C CNN
	1    8400 4650
	1    0    0    -1  
$EndComp
$Comp
L power:GND #PWR0101
U 1 1 5C6BDEA9
P 9750 5100
F 0 "#PWR0101" H 9750 4850 50  0001 C CNN
F 1 "GND" H 9755 4927 50  0000 C CNN
F 2 "" H 9750 5100 50  0001 C CNN
F 3 "" H 9750 5100 50  0001 C CNN
	1    9750 5100
	1    0    0    -1  
$EndComp
$Comp
L power:GND #PWR0102
U 1 1 5C6BDF09
P 9950 5100
F 0 "#PWR0102" H 9950 4850 50  0001 C CNN
F 1 "GND" H 9955 4927 50  0000 C CNN
F 2 "" H 9950 5100 50  0001 C CNN
F 3 "" H 9950 5100 50  0001 C CNN
	1    9950 5100
	1    0    0    -1  
$EndComp
$Comp
L power:GND #PWR0120
U 1 1 5C6BDF62
P 10050 4600
F 0 "#PWR0120" H 10050 4350 50  0001 C CNN
F 1 "GND" H 10055 4427 50  0000 C CNN
F 2 "" H 10050 4600 50  0001 C CNN
F 3 "" H 10050 4600 50  0001 C CNN
	1    10050 4600
	1    0    0    -1  
$EndComp
$Comp
L power:GND #PWR0121
U 1 1 5C6BDFBB
P 10350 4600
F 0 "#PWR0121" H 10350 4350 50  0001 C CNN
F 1 "GND" H 10355 4427 50  0000 C CNN
F 2 "" H 10350 4600 50  0001 C CNN
F 3 "" H 10350 4600 50  0001 C CNN
	1    10350 4600
	1    0    0    -1  
$EndComp
$Comp
L power:GND #PWR0122
U 1 1 5C6BE014
P 10550 4600
F 0 "#PWR0122" H 10550 4350 50  0001 C CNN
F 1 "GND" H 10555 4427 50  0000 C CNN
F 2 "" H 10550 4600 50  0001 C CNN
F 3 "" H 10550 4600 50  0001 C CNN
	1    10550 4600
	1    0    0    -1  
$EndComp
$Comp
L power:GND #PWR0123
U 1 1 5C6BE06D
P 11500 4250
F 0 "#PWR0123" H 11500 4000 50  0001 C CNN
F 1 "GND" H 11505 4077 50  0000 C CNN
F 2 "" H 11500 4250 50  0001 C CNN
F 3 "" H 11500 4250 50  0001 C CNN
	1    11500 4250
	1    0    0    -1  
$EndComp
$Comp
L power:GND #PWR0124
U 1 1 5C6BE0C6
P 12050 5250
F 0 "#PWR0124" H 12050 5000 50  0001 C CNN
F 1 "GND" H 12055 5077 50  0000 C CNN
F 2 "" H 12050 5250 50  0001 C CNN
F 3 "" H 12050 5250 50  0001 C CNN
	1    12050 5250
	1    0    0    -1  
$EndComp
$Comp
L power:GND #PWR0125
U 1 1 5C6BE11F
P 12250 3550
F 0 "#PWR0125" H 12250 3300 50  0001 C CNN
F 1 "GND" H 12255 3377 50  0000 C CNN
F 2 "" H 12250 3550 50  0001 C CNN
F 3 "" H 12250 3550 50  0001 C CNN
	1    12250 3550
	1    0    0    -1  
$EndComp
$Comp
L power:GND #PWR0126
U 1 1 5C6BE178
P 11200 3750
F 0 "#PWR0126" H 11200 3500 50  0001 C CNN
F 1 "GND" V 11205 3622 50  0000 R CNN
F 2 "" H 11200 3750 50  0001 C CNN
F 3 "" H 11200 3750 50  0001 C CNN
	1    11200 3750
	0    -1   -1   0   
$EndComp
$Comp
L power:GND #PWR0127
U 1 1 5C6BE246
P 11200 3150
F 0 "#PWR0127" H 11200 2900 50  0001 C CNN
F 1 "GND" V 11205 3022 50  0000 R CNN
F 2 "" H 11200 3150 50  0001 C CNN
F 3 "" H 11200 3150 50  0001 C CNN
	1    11200 3150
	0    -1   -1   0   
$EndComp
$Comp
L power:GND #PWR0130
U 1 1 5C6BE29F
P 10650 2400
F 0 "#PWR0130" H 10650 2150 50  0001 C CNN
F 1 "GND" H 10655 2227 50  0000 C CNN
F 2 "" H 10650 2400 50  0001 C CNN
F 3 "" H 10650 2400 50  0001 C CNN
	1    10650 2400
	-1   0    0    1   
$EndComp
$Comp
L power:GND #PWR0131
U 1 1 5C6C0D5F
P 12550 1750
F 0 "#PWR0131" H 12550 1500 50  0001 C CNN
F 1 "GND" H 12555 1577 50  0000 C CNN
F 2 "" H 12550 1750 50  0001 C CNN
F 3 "" H 12550 1750 50  0001 C CNN
	1    12550 1750
	1    0    0    -1  
$EndComp
$Comp
L power:GND #PWR0132
U 1 1 5C6C1271
P 12800 1750
F 0 "#PWR0132" H 12800 1500 50  0001 C CNN
F 1 "GND" H 12805 1577 50  0000 C CNN
F 2 "" H 12800 1750 50  0001 C CNN
F 3 "" H 12800 1750 50  0001 C CNN
	1    12800 1750
	1    0    0    -1  
$EndComp
$Comp
L power:GND #PWR0134
U 1 1 5C6C12CA
P 13050 1750
F 0 "#PWR0134" H 13050 1500 50  0001 C CNN
F 1 "GND" H 13055 1577 50  0000 C CNN
F 2 "" H 13050 1750 50  0001 C CNN
F 3 "" H 13050 1750 50  0001 C CNN
	1    13050 1750
	1    0    0    -1  
$EndComp
$Comp
L power:GND #PWR0135
U 1 1 5C6C1323
P 13300 1750
F 0 "#PWR0135" H 13300 1500 50  0001 C CNN
F 1 "GND" H 13305 1577 50  0000 C CNN
F 2 "" H 13300 1750 50  0001 C CNN
F 3 "" H 13300 1750 50  0001 C CNN
	1    13300 1750
	1    0    0    -1  
$EndComp
$Comp
L power:GND #PWR0136
U 1 1 5C6C137C
P 13550 1750
F 0 "#PWR0136" H 13550 1500 50  0001 C CNN
F 1 "GND" H 13555 1577 50  0000 C CNN
F 2 "" H 13550 1750 50  0001 C CNN
F 3 "" H 13550 1750 50  0001 C CNN
	1    13550 1750
	1    0    0    -1  
$EndComp
$Comp
L power:GND #PWR0137
U 1 1 5C6C13D5
P 13800 1750
F 0 "#PWR0137" H 13800 1500 50  0001 C CNN
F 1 "GND" H 13805 1577 50  0000 C CNN
F 2 "" H 13800 1750 50  0001 C CNN
F 3 "" H 13800 1750 50  0001 C CNN
	1    13800 1750
	1    0    0    -1  
$EndComp
$Comp
L power:GND #PWR0138
U 1 1 5C6C142E
P 14050 1750
F 0 "#PWR0138" H 14050 1500 50  0001 C CNN
F 1 "GND" H 14055 1577 50  0000 C CNN
F 2 "" H 14050 1750 50  0001 C CNN
F 3 "" H 14050 1750 50  0001 C CNN
	1    14050 1750
	1    0    0    -1  
$EndComp
$Comp
L power:GND #PWR0103
U 1 1 5C5CC98F
P 13700 2800
F 0 "#PWR0103" H 13700 2550 50  0001 C CNN
F 1 "GND" H 13705 2627 50  0000 C CNN
F 2 "" H 13700 2800 50  0001 C CNN
F 3 "" H 13700 2800 50  0001 C CNN
	1    13700 2800
	1    0    0    -1  
$EndComp
$Comp
L power:GND #PWR0104
U 1 1 5C5CCA0F
P 12950 3800
F 0 "#PWR0104" H 12950 3550 50  0001 C CNN
F 1 "GND" H 12955 3627 50  0000 C CNN
F 2 "" H 12950 3800 50  0001 C CNN
F 3 "" H 12950 3800 50  0001 C CNN
	1    12950 3800
	1    0    0    -1  
$EndComp
Text Label 11100 8600 0    50   ~ 0
SPI1_MOSI
$Comp
L iccfpga-devboard-rescue:MPCIE-Socket-mpcie U3
U 1 1 5C988D75
P 10400 9350
F 0 "U3" H 10400 10893 60  0000 C CNN
F 1 "MPCIE-Socket" H 10400 10787 60  0000 C CNN
F 2 "mpcie:mpcie-socket" H 10400 10681 60  0000 C CNN
F 3 "" H 10500 8350 60  0000 C CNN
F 4 "D" H 10400 9350 50  0001 C CNN "Distributor"
F 5 "A123340CT-ND" H 10400 9350 50  0001 C CNN "OrderNr"
F 6 "Molex 48338-0052" H 10400 9350 50  0001 C CNN "Manufacturer"
	1    10400 9350
	1    0    0    -1  
$EndComp
$Comp
L power:GND #PWR0146
U 1 1 5CA04261
P 9700 8600
F 0 "#PWR0146" H 9700 8350 50  0001 C CNN
F 1 "GND" V 9705 8472 50  0000 R CNN
F 2 "" H 9700 8600 50  0001 C CNN
F 3 "" H 9700 8600 50  0001 C CNN
	1    9700 8600
	0    1    1    0   
$EndComp
$Comp
L power:GND #PWR0147
U 1 1 5CA04695
P 9700 8900
F 0 "#PWR0147" H 9700 8650 50  0001 C CNN
F 1 "GND" V 9705 8772 50  0000 R CNN
F 2 "" H 9700 8900 50  0001 C CNN
F 3 "" H 9700 8900 50  0001 C CNN
	1    9700 8900
	0    1    1    0   
$EndComp
$Comp
L power:GND #PWR0148
U 1 1 5CA049E4
P 9700 9000
F 0 "#PWR0148" H 9700 8750 50  0001 C CNN
F 1 "GND" V 9705 8872 50  0000 R CNN
F 2 "" H 9700 9000 50  0001 C CNN
F 3 "" H 9700 9000 50  0001 C CNN
	1    9700 9000
	0    1    1    0   
$EndComp
$Comp
L power:GND #PWR0149
U 1 1 5CA04C38
P 9700 9300
F 0 "#PWR0149" H 9700 9050 50  0001 C CNN
F 1 "GND" V 9705 9172 50  0000 R CNN
F 2 "" H 9700 9300 50  0001 C CNN
F 3 "" H 9700 9300 50  0001 C CNN
	1    9700 9300
	0    1    1    0   
$EndComp
$Comp
L power:GND #PWR0150
U 1 1 5CA05468
P 9700 10100
F 0 "#PWR0150" H 9700 9850 50  0001 C CNN
F 1 "GND" V 9705 9972 50  0000 R CNN
F 2 "" H 9700 10100 50  0001 C CNN
F 3 "" H 9700 10100 50  0001 C CNN
	1    9700 10100
	0    1    1    0   
$EndComp
$Comp
L power:GND #PWR0151
U 1 1 5CA0575F
P 9700 10400
F 0 "#PWR0151" H 9700 10150 50  0001 C CNN
F 1 "GND" V 9705 10272 50  0000 R CNN
F 2 "" H 9700 10400 50  0001 C CNN
F 3 "" H 9700 10400 50  0001 C CNN
	1    9700 10400
	0    1    1    0   
$EndComp
$Comp
L power:GND #PWR0152
U 1 1 5CA05B90
P 11100 10700
F 0 "#PWR0152" H 11100 10450 50  0001 C CNN
F 1 "GND" V 11105 10572 50  0000 R CNN
F 2 "" H 11100 10700 50  0001 C CNN
F 3 "" H 11100 10700 50  0001 C CNN
	1    11100 10700
	0    -1   -1   0   
$EndComp
$Comp
L power:GND #PWR0153
U 1 1 5CA061B6
P 11100 9900
F 0 "#PWR0153" H 11100 9650 50  0001 C CNN
F 1 "GND" V 11105 9772 50  0000 R CNN
F 2 "" H 11100 9900 50  0001 C CNN
F 3 "" H 11100 9900 50  0001 C CNN
	1    11100 9900
	0    -1   -1   0   
$EndComp
$Comp
L power:GND #PWR0154
U 1 1 5CA068BC
P 11100 9500
F 0 "#PWR0154" H 11100 9250 50  0001 C CNN
F 1 "GND" V 11105 9372 50  0000 R CNN
F 2 "" H 11100 9500 50  0001 C CNN
F 3 "" H 11100 9500 50  0001 C CNN
	1    11100 9500
	0    -1   -1   0   
$EndComp
$Comp
L power:GND #PWR0155
U 1 1 5CA06E70
P 11100 8800
F 0 "#PWR0155" H 11100 8550 50  0001 C CNN
F 1 "GND" V 11105 8672 50  0000 R CNN
F 2 "" H 11100 8800 50  0001 C CNN
F 3 "" H 11100 8800 50  0001 C CNN
	1    11100 8800
	0    -1   -1   0   
$EndComp
$Comp
L power:GND #PWR0156
U 1 1 5CA072B6
P 11100 9100
F 0 "#PWR0156" H 11100 8850 50  0001 C CNN
F 1 "GND" V 11105 8972 50  0000 R CNN
F 2 "" H 11100 9100 50  0001 C CNN
F 3 "" H 11100 9100 50  0001 C CNN
	1    11100 9100
	0    -1   -1   0   
$EndComp
$Comp
L power:GND #PWR0157
U 1 1 5CA075C0
P 11100 8300
F 0 "#PWR0157" H 11100 8050 50  0001 C CNN
F 1 "GND" V 11105 8172 50  0000 R CNN
F 2 "" H 11100 8300 50  0001 C CNN
F 3 "" H 11100 8300 50  0001 C CNN
	1    11100 8300
	0    -1   -1   0   
$EndComp
$Comp
L power:+3V3 #PWR0158
U 1 1 5CA093D9
P 11100 8200
F 0 "#PWR0158" H 11100 8050 50  0001 C CNN
F 1 "+3V3" V 11115 8328 50  0000 L CNN
F 2 "" H 11100 8200 50  0001 C CNN
F 3 "" H 11100 8200 50  0001 C CNN
	1    11100 8200
	0    1    1    0   
$EndComp
$Comp
L power:+3V3 #PWR0159
U 1 1 5CA09B20
P 11100 9600
F 0 "#PWR0159" H 11100 9450 50  0001 C CNN
F 1 "+3V3" V 11115 9728 50  0000 L CNN
F 2 "" H 11100 9600 50  0001 C CNN
F 3 "" H 11100 9600 50  0001 C CNN
	1    11100 9600
	0    1    1    0   
$EndComp
$Comp
L power:+3V3 #PWR0160
U 1 1 5CA0A628
P 11100 10800
F 0 "#PWR0160" H 11100 10650 50  0001 C CNN
F 1 "+3V3" V 11115 10928 50  0000 L CNN
F 2 "" H 11100 10800 50  0001 C CNN
F 3 "" H 11100 10800 50  0001 C CNN
	1    11100 10800
	0    1    1    0   
$EndComp
$Comp
L power:+3V3 #PWR0161
U 1 1 5CA0B011
P 9700 8700
F 0 "#PWR0161" H 9700 8550 50  0001 C CNN
F 1 "+3V3" V 9715 8828 50  0000 L CNN
F 2 "" H 9700 8700 50  0001 C CNN
F 3 "" H 9700 8700 50  0001 C CNN
	1    9700 8700
	0    -1   -1   0   
$EndComp
$Comp
L power:+3V3 #PWR0162
U 1 1 5CA0BDD9
P 9700 8800
F 0 "#PWR0162" H 9700 8650 50  0001 C CNN
F 1 "+3V3" V 9715 8928 50  0000 L CNN
F 2 "" H 9700 8800 50  0001 C CNN
F 3 "" H 9700 8800 50  0001 C CNN
	1    9700 8800
	0    -1   -1   0   
$EndComp
Wire Wire Line
	11100 10500 11500 10500
Wire Wire Line
	11100 10400 11500 10400
Wire Wire Line
	11100 10300 11500 10300
Wire Wire Line
	11100 10200 11500 10200
Wire Wire Line
	11100 10100 11500 10100
Text Label 11100 10500 0    50   ~ 0
W5500_MOSI
Text Label 11100 10400 0    50   ~ 0
W5500_MISO
Text Label 11100 10300 0    50   ~ 0
W5500_SCK
Text Label 11100 10200 0    50   ~ 0
W5500_SS
Wire Wire Line
	11100 9800 11450 9800
Text Label 11100 9700 0    50   ~ 0
TMS
Wire Wire Line
	11100 9700 11450 9700
Text Label 11100 9800 0    50   ~ 0
TCK
Wire Wire Line
	11100 9400 11450 9400
Wire Wire Line
	11100 9300 11450 9300
Wire Wire Line
	11100 9200 11450 9200
Wire Wire Line
	11100 9000 11450 9000
Wire Wire Line
	11100 8900 11450 8900
Text Label 11100 9200 0    50   ~ 0
IN3
Wire Wire Line
	11100 8700 11450 8700
Wire Wire Line
	11100 8600 11450 8600
Wire Wire Line
	11100 8500 11450 8500
Text Label 11100 10100 0    50   ~ 0
W5500_RSTN
Text Label 9700 9200 2    50   ~ 0
IN2
Text Label 11100 9400 0    50   ~ 0
IN0
Text Label 11100 9300 0    50   ~ 0
IN1
Text Label 9700 9100 2    50   ~ 0
OUT0
Text Label 11100 9000 0    50   ~ 0
OUT1
Text Label 11100 8900 0    50   ~ 0
OUT2
Text Label 11100 8700 0    50   ~ 0
OUT3
Text Label 11100 8500 0    50   ~ 0
SPI1_MISO
Text Label 9700 8500 2    50   ~ 0
SPI1_SCK
Text Label 9700 8400 2    50   ~ 0
SPI1_SS
$Comp
L power:GND #PWR0163
U 1 1 5CA04EA1
P 9700 9400
F 0 "#PWR0163" H 9700 9150 50  0001 C CNN
F 1 "GND" V 9705 9272 50  0000 R CNN
F 2 "" H 9700 9400 50  0001 C CNN
F 3 "" H 9700 9400 50  0001 C CNN
	1    9700 9400
	0    1    1    0   
$EndComp
Text Label 9700 9500 2    50   ~ 0
TDI
Text Label 9700 9600 2    50   ~ 0
TDO
Text Label 9700 9800 2    50   ~ 0
TXD
$Comp
L power:GND #PWR0164
U 1 1 5CA050BF
P 9700 9700
F 0 "#PWR0164" H 9700 9450 50  0001 C CNN
F 1 "GND" V 9705 9572 50  0000 R CNN
F 2 "" H 9700 9700 50  0001 C CNN
F 3 "" H 9700 9700 50  0001 C CNN
	1    9700 9700
	0    1    1    0   
$EndComp
Text Label 9700 9900 2    50   ~ 0
RXD
Text Label 9700 10200 2    50   ~ 0
W5500_INTN
Text Label 9700 10300 2    50   ~ 0
RESET
Text Label 9700 10600 2    50   ~ 0
SWD_RESET
Text Label 9700 10700 2    50   ~ 0
SWD_IO
Text Label 9700 10800 2    50   ~ 0
SWD_CLK
Wire Wire Line
	9700 10600 9300 10600
Wire Wire Line
	9700 10800 9300 10800
Wire Wire Line
	9700 10700 9300 10700
Wire Wire Line
	9700 10300 9300 10300
Wire Wire Line
	9700 10200 9300 10200
Wire Wire Line
	9300 9900 9700 9900
Wire Wire Line
	9300 9800 9700 9800
Wire Wire Line
	9700 9500 9300 9500
Wire Wire Line
	9700 9600 9300 9600
Wire Wire Line
	9700 9200 9300 9200
Wire Wire Line
	9300 9100 9700 9100
Wire Wire Line
	9700 8500 9350 8500
Wire Wire Line
	9700 8400 9350 8400
Wire Wire Line
	9700 8300 9350 8300
Text Label 9600 8300 2    50   ~ 0
IO11
Text Label 8350 2250 2    50   ~ 0
W5500_RSTN
Text Label 8300 2950 2    50   ~ 0
W5500_INTN
Text Label 8300 3350 2    50   ~ 0
W5500_SS
Text Label 8300 3150 2    50   ~ 0
W5500_MISO
Text Label 8300 3050 2    50   ~ 0
W5500_MOSI
Text Label 8300 3250 2    50   ~ 0
W5500_SCK
$Comp
L Connector_Generic:Conn_02x07_Odd_Even J1
U 1 1 5CB4C18D
P 15200 7250
F 0 "J1" H 15250 7767 50  0000 C CNN
F 1 "JTAG" H 15250 7676 50  0000 C CNN
F 2 "Connector_PinHeader_2.00mm:PinHeader_2x07_P2.00mm_Vertical" H 15200 7250 50  0001 C CNN
F 3 "~" H 15200 7250 50  0001 C CNN
	1    15200 7250
	1    0    0    -1  
$EndComp
$Comp
L power:GND #PWR0165
U 1 1 5CB4D0D1
P 14900 7650
F 0 "#PWR0165" H 14900 7400 50  0001 C CNN
F 1 "GND" H 14905 7477 50  0000 C CNN
F 2 "" H 14900 7650 50  0001 C CNN
F 3 "" H 14900 7650 50  0001 C CNN
	1    14900 7650
	1    0    0    -1  
$EndComp
Wire Wire Line
	14900 7650 14900 7550
Wire Wire Line
	14900 6950 15000 6950
Wire Wire Line
	15000 7050 14900 7050
Connection ~ 14900 7050
Wire Wire Line
	14900 7050 14900 6950
Wire Wire Line
	15000 7150 14900 7150
Connection ~ 14900 7150
Wire Wire Line
	14900 7150 14900 7050
Wire Wire Line
	15000 7250 14900 7250
Connection ~ 14900 7250
Wire Wire Line
	14900 7250 14900 7150
Wire Wire Line
	15000 7350 14900 7350
Connection ~ 14900 7350
Wire Wire Line
	14900 7350 14900 7250
Wire Wire Line
	15000 7450 14900 7450
Connection ~ 14900 7450
Wire Wire Line
	14900 7450 14900 7350
Wire Wire Line
	15000 7550 14900 7550
Connection ~ 14900 7550
Wire Wire Line
	14900 7550 14900 7450
Wire Wire Line
	15500 7050 15750 7050
Wire Wire Line
	15500 7150 15750 7150
Wire Wire Line
	15500 7250 15750 7250
Wire Wire Line
	15500 7350 15750 7350
Text Label 15550 7050 0    50   ~ 0
TMS
Text Label 15550 7150 0    50   ~ 0
TCK
Text Label 15550 7250 0    50   ~ 0
TDO
Text Label 15550 7350 0    50   ~ 0
TDI
Wire Wire Line
	15500 6950 15750 6950
$Comp
L power:+3V3 #PWR0166
U 1 1 5CBDFD22
P 15750 6950
F 0 "#PWR0166" H 15750 6800 50  0001 C CNN
F 1 "+3V3" H 15765 7123 50  0000 C CNN
F 2 "" H 15750 6950 50  0001 C CNN
F 3 "" H 15750 6950 50  0001 C CNN
	1    15750 6950
	1    0    0    -1  
$EndComp
$Comp
L iccfpga-devboard-rescue:GND-pearldiver-rescue #PWR0171
U 1 1 5ADF9A3E
P 1650 9800
F 0 "#PWR0171" H 1650 9550 50  0001 C CNN
F 1 "GND" H 1650 9650 50  0000 C CNN
F 2 "" H 1650 9800 50  0000 C CNN
F 3 "" H 1650 9800 50  0000 C CNN
	1    1650 9800
	1    0    0    -1  
$EndComp
$Comp
L iccfpga-devboard-rescue:GND-pearldiver-rescue #PWR0172
U 1 1 5ADF9A44
P 1200 10400
F 0 "#PWR0172" H 1200 10150 50  0001 C CNN
F 1 "GND" H 1200 10250 50  0000 C CNN
F 2 "" H 1200 10400 50  0000 C CNN
F 3 "" H 1200 10400 50  0000 C CNN
	1    1200 10400
	1    0    0    -1  
$EndComp
$Comp
L iccfpga-devboard-rescue:MYUSB_B-pearldiver-rescue P2
U 1 1 5ADF9B57
P 1300 9650
F 0 "P2" H 1500 9450 50  0000 C CNN
F 1 "10104110-0001LF" H 1150 9850 50  0000 C CNN
F 2 "myfootprints:MICROUSBB" V 1250 9550 50  0001 C CNN
F 3 "" V 1250 9550 50  0000 C CNN
	1    1300 9650
	0    -1   1    0   
$EndComp
$Comp
L iccfpga-devboard-rescue:R-pearldiver-rescue R21
U 1 1 5ADF9B6E
P 1700 5800
F 0 "R21" V 1780 5800 50  0000 C CNN
F 1 "10k" V 1700 5800 50  0000 C CNN
F 2 "Resistor_SMD:R_0603_1608Metric" V 1630 5800 50  0001 C CNN
F 3 "" H 1700 5800 50  0000 C CNN
	1    1700 5800
	1    0    0    -1  
$EndComp
$Comp
L iccfpga-devboard-rescue:C-pearldiver-rescue C20
U 1 1 5ADF9B75
P 1700 6250
F 0 "C20" H 1725 6350 50  0000 L CNN
F 1 "100n" H 1725 6150 50  0000 L CNN
F 2 "Capacitor_SMD:C_0603_1608Metric" H 1738 6100 50  0001 C CNN
F 3 "" H 1700 6250 50  0000 C CNN
	1    1700 6250
	1    0    0    -1  
$EndComp
$Comp
L iccfpga-devboard-rescue:+3.3V-pearldiver-rescue #PWR0186
U 1 1 5ADF9B82
P 1700 5650
F 0 "#PWR0186" H 1700 5500 50  0001 C CNN
F 1 "+3.3V" H 1700 5790 50  0000 C CNN
F 2 "" H 1700 5650 50  0000 C CNN
F 3 "" H 1700 5650 50  0000 C CNN
	1    1700 5650
	1    0    0    -1  
$EndComp
$Comp
L iccfpga-devboard-rescue:SW_PUSH-pearldiver-rescue SW1
U 1 1 5ADF9B8A
P 1250 6050
F 0 "SW1" H 1400 6160 50  0000 C CNN
F 1 "KMR2" H 1250 5970 50  0000 C CNN
F 2 "Button_Switch_SMD:SW_SPST_KMR2" H 1250 6050 50  0001 C CNN
F 3 "" H 1250 6050 50  0000 C CNN
	1    1250 6050
	1    0    0    -1  
$EndComp
$Comp
L iccfpga-devboard-rescue:GND-pearldiver-rescue #PWR0187
U 1 1 5ADF9B91
P 900 6100
F 0 "#PWR0187" H 900 5850 50  0001 C CNN
F 1 "GND" H 900 5950 50  0000 C CNN
F 2 "" H 900 6100 50  0000 C CNN
F 3 "" H 900 6100 50  0000 C CNN
	1    900  6100
	1    0    0    -1  
$EndComp
$Comp
L iccfpga-devboard-rescue:R-pearldiver-rescue R22
U 1 1 5B13E169
P 2550 7350
F 0 "R22" V 2630 7350 50  0000 C CNN
F 1 "10k" V 2550 7350 50  0000 C CNN
F 2 "Resistor_SMD:R_0603_1608Metric" V 2480 7350 50  0001 C CNN
F 3 "" H 2550 7350 50  0000 C CNN
	1    2550 7350
	1    0    0    -1  
$EndComp
$Comp
L iccfpga-devboard-rescue:GND-pearldiver-rescue #PWR0192
U 1 1 5B13E1CE
P 2550 7500
F 0 "#PWR0192" H 2550 7250 50  0001 C CNN
F 1 "GND" H 2550 7350 50  0000 C CNN
F 2 "" H 2550 7500 50  0000 C CNN
F 3 "" H 2550 7500 50  0000 C CNN
	1    2550 7500
	1    0    0    -1  
$EndComp
$Comp
L iccfpga-devboard-rescue:GND-pearldiver-rescue #PWR0193
U 1 1 5B141CF1
P 2500 9800
F 0 "#PWR0193" H 2500 9550 50  0001 C CNN
F 1 "GND" H 2500 9650 50  0000 C CNN
F 2 "" H 2500 9800 50  0000 C CNN
F 3 "" H 2500 9800 50  0000 C CNN
	1    2500 9800
	1    0    0    -1  
$EndComp
$Comp
L iccfpga-devboard-rescue:C-pearldiver-rescue C21
U 1 1 5B1442E8
P 1900 9900
F 0 "C21" H 1750 10000 50  0000 L CNN
F 1 "10n" H 1700 9800 50  0000 L CNN
F 2 "Capacitor_SMD:C_0603_1608Metric" H 1938 9750 50  0001 C CNN
F 3 "" H 1900 9900 50  0000 C CNN
	1    1900 9900
	-1   0    0    1   
$EndComp
$Comp
L iccfpga-devboard-rescue:C-pearldiver-rescue C25
U 1 1 5B145653
P 2950 8950
F 0 "C25" H 2975 9050 50  0000 L CNN
F 1 "4.7µ/X5R" V 2800 8800 50  0000 L CNN
F 2 "Capacitor_SMD:C_1206_3216Metric" H 2988 8800 50  0001 C CNN
F 3 "" H 2950 8950 50  0001 C CNN
	1    2950 8950
	-1   0    0    1   
$EndComp
$Comp
L iccfpga-devboard-rescue:GND-pearldiver-rescue #PWR0195
U 1 1 5B145790
P 2950 9100
F 0 "#PWR0195" H 2950 8850 50  0001 C CNN
F 1 "GND" H 2950 8950 50  0000 C CNN
F 2 "" H 2950 9100 50  0000 C CNN
F 3 "" H 2950 9100 50  0000 C CNN
	1    2950 9100
	1    0    0    -1  
$EndComp
$Comp
L iccfpga-devboard-rescue:R-pearldiver-rescue R24
U 1 1 5B1464FE
P 3500 9500
F 0 "R24" V 3600 9500 50  0000 C CNN
F 1 "33" V 3500 9500 50  0000 C CNN
F 2 "Resistor_SMD:R_0603_1608Metric" V 3430 9500 50  0001 C CNN
F 3 "" H 3500 9500 50  0000 C CNN
	1    3500 9500
	0    1    1    0   
$EndComp
$Comp
L iccfpga-devboard-rescue:R-pearldiver-rescue R25
U 1 1 5B1465D8
P 3500 9700
F 0 "R25" V 3580 9700 50  0000 C CNN
F 1 "33" V 3500 9700 50  0000 C CNN
F 2 "Resistor_SMD:R_0603_1608Metric" V 3430 9700 50  0001 C CNN
F 3 "" H 3500 9700 50  0000 C CNN
	1    3500 9700
	0    1    1    0   
$EndComp
$Comp
L iccfpga-devboard-rescue:C-pearldiver-rescue C28
U 1 1 5B146726
P 3750 9900
F 0 "C28" H 3650 10000 50  0000 L CNN
F 1 "47p" H 3550 9800 50  0000 L CNN
F 2 "Capacitor_SMD:C_0603_1608Metric" H 3788 9750 50  0001 C CNN
F 3 "" H 3750 9900 50  0000 C CNN
	1    3750 9900
	-1   0    0    1   
$EndComp
$Comp
L iccfpga-devboard-rescue:C-pearldiver-rescue C30
U 1 1 5B1467D8
P 4000 9900
F 0 "C30" H 3900 10000 50  0000 L CNN
F 1 "47p" H 3800 9800 50  0000 L CNN
F 2 "Capacitor_SMD:C_0603_1608Metric" H 4038 9750 50  0001 C CNN
F 3 "" H 4000 9900 50  0000 C CNN
	1    4000 9900
	-1   0    0    1   
$EndComp
$Comp
L iccfpga-devboard-rescue:GND-pearldiver-rescue #PWR0196
U 1 1 5B1469B9
P 3750 10050
F 0 "#PWR0196" H 3750 9800 50  0001 C CNN
F 1 "GND" H 3750 9900 50  0000 C CNN
F 2 "" H 3750 10050 50  0000 C CNN
F 3 "" H 3750 10050 50  0000 C CNN
	1    3750 10050
	1    0    0    -1  
$EndComp
$Comp
L iccfpga-devboard-rescue:GND-pearldiver-rescue #PWR0197
U 1 1 5B146A21
P 4000 10050
F 0 "#PWR0197" H 4000 9800 50  0001 C CNN
F 1 "GND" H 4000 9900 50  0000 C CNN
F 2 "" H 4000 10050 50  0000 C CNN
F 3 "" H 4000 10050 50  0000 C CNN
	1    4000 10050
	1    0    0    -1  
$EndComp
$Comp
L iccfpga-devboard-rescue:R-pearldiver-rescue R20
U 1 1 5B1477E0
P 1450 10200
F 0 "R20" V 1530 10200 50  0000 C CNN
F 1 "100k" V 1450 10200 50  0000 C CNN
F 2 "Resistor_SMD:R_0603_1608Metric" V 1380 10200 50  0001 C CNN
F 3 "" H 1450 10200 50  0000 C CNN
	1    1450 10200
	1    0    0    -1  
$EndComp
$Comp
L iccfpga-devboard-rescue:GND-pearldiver-rescue #PWR0198
U 1 1 5B1478A1
P 1450 10400
F 0 "#PWR0198" H 1450 10150 50  0001 C CNN
F 1 "GND" H 1450 10250 50  0000 C CNN
F 2 "" H 1450 10400 50  0000 C CNN
F 3 "" H 1450 10400 50  0000 C CNN
	1    1450 10400
	1    0    0    -1  
$EndComp
$Comp
L iccfpga-devboard-rescue:USBLC6-2-pearldiver-rescue U6
U 1 1 5B1417D6
P 2200 9600
F 0 "U6" V 2500 9650 60  0000 C CNN
F 1 "USBLC6-2SC6" V 2425 9600 60  0000 C CNN
F 2 "Package_TO_SOT_SMD:SOT-23-6" H 2225 9450 60  0001 C CNN
F 3 "" H 2225 9450 60  0001 C CNN
	1    2200 9600
	0    -1   -1   0   
$EndComp
Wire Wire Line
	900  6050 950  6050
Wire Wire Line
	900  6100 900  6050
Connection ~ 1700 6050
Wire Wire Line
	1700 5950 1700 6050
Wire Wire Line
	1650 9750 1650 9800
Wire Wire Line
	1600 9750 1650 9750
Wire Wire Line
	1550 6050 1700 6050
Connection ~ 2550 7150
Wire Wire Line
	1600 9550 2000 9550
Wire Wire Line
	2000 9550 2000 9450
Wire Wire Line
	2000 9450 2050 9450
Wire Wire Line
	2350 9450 2400 9450
Wire Wire Line
	1600 9650 2000 9650
Wire Wire Line
	2000 9650 2000 9750
Wire Wire Line
	2000 9750 2050 9750
Wire Wire Line
	2350 9750 2400 9750
Wire Wire Line
	2350 9600 2500 9600
Wire Wire Line
	2950 8750 2950 8800
Connection ~ 2950 8750
Wire Wire Line
	3650 9700 4000 9700
Wire Wire Line
	3650 9500 3750 9500
Wire Wire Line
	3750 9500 3750 9750
Connection ~ 4000 9700
Connection ~ 3750 9500
Wire Wire Line
	1450 10400 1450 10350
Wire Wire Line
	1450 10050 1450 10000
Wire Wire Line
	1450 10000 1300 10000
Wire Wire Line
	1300 10000 1300 9950
Wire Wire Line
	2500 9600 2500 9800
Wire Wire Line
	2400 9750 2400 9700
Wire Wire Line
	2400 9500 2400 9450
Wire Wire Line
	2500 5850 2500 6050
Connection ~ 2500 6050
Wire Wire Line
	4000 9750 4000 9700
Wire Wire Line
	1700 6050 1700 6100
Wire Wire Line
	1700 6050 2500 6050
Wire Wire Line
	2550 7150 2550 7200
Wire Wire Line
	1900 9600 2050 9600
Wire Wire Line
	2950 8750 3150 8750
Wire Wire Line
	4000 9700 4100 9700
Wire Wire Line
	3750 9500 4100 9500
Wire Wire Line
	2500 6050 3000 6050
$Comp
L iccfpga-devboard-rescue:SW_PUSH-pearldiver-rescue SW2
U 1 1 5B64B6E4
P 2100 7150
F 0 "SW2" H 2250 7260 50  0000 C CNN
F 1 "KMR2" H 2100 7070 50  0000 C CNN
F 2 "Button_Switch_SMD:SW_SPST_KMR2" H 2100 7150 50  0001 C CNN
F 3 "" H 2100 7150 50  0000 C CNN
	1    2100 7150
	1    0    0    -1  
$EndComp
$Comp
L iccfpga-devboard-rescue:+3.3V-pearldiver-rescue #PWR0200
U 1 1 5B64B826
P 1750 7050
F 0 "#PWR0200" H 1750 6900 50  0001 C CNN
F 1 "+3.3V" H 1750 7190 50  0000 C CNN
F 2 "" H 1750 7050 50  0000 C CNN
F 3 "" H 1750 7050 50  0000 C CNN
	1    1750 7050
	1    0    0    -1  
$EndComp
Wire Wire Line
	2400 7150 2550 7150
$Comp
L iccfpga-devboard-rescue:GND-pearldiver-rescue #PWR0201
U 1 1 5ADF9B7C
P 1700 6400
F 0 "#PWR0201" H 1700 6150 50  0001 C CNN
F 1 "GND" H 1700 6250 50  0000 C CNN
F 2 "" H 1700 6400 50  0000 C CNN
F 3 "" H 1700 6400 50  0000 C CNN
	1    1700 6400
	1    0    0    -1  
$EndComp
$Comp
L iccfpga-devboard-rescue:LED-pearldiver-rescue D2
U 1 1 5AE0EC23
P 2850 8000
F 0 "D2" H 2850 8100 50  0000 C CNN
F 1 "LED" H 2850 7900 50  0000 C CNN
F 2 "LED_SMD:LED_1206_3216Metric" H 2850 8000 50  0001 C CNN
F 3 "" H 2850 8000 50  0001 C CNN
	1    2850 8000
	0    -1   -1   0   
$EndComp
$Comp
L iccfpga-devboard-rescue:GND-pearldiver-rescue #PWR0204
U 1 1 5AE0F4FC
P 2850 8150
F 0 "#PWR0204" H 2850 7900 50  0001 C CNN
F 1 "GND" H 2850 8000 50  0000 C CNN
F 2 "" H 2850 8150 50  0001 C CNN
F 3 "" H 2850 8150 50  0001 C CNN
	1    2850 8150
	1    0    0    -1  
$EndComp
$Comp
L iccfpga-devboard-rescue:R-pearldiver-rescue R32
U 1 1 5AE0FB0F
P 2850 7650
F 0 "R32" V 2930 7650 50  0000 C CNN
F 1 "270" V 2850 7650 50  0000 C CNN
F 2 "Resistor_SMD:R_1206_3216Metric" V 2780 7650 50  0001 C CNN
F 3 "" H 2850 7650 50  0001 C CNN
	1    2850 7650
	1    0    0    -1  
$EndComp
Wire Wire Line
	2850 7800 2850 7850
$Comp
L iccfpga-devboard-rescue:LED-pearldiver-rescue D1
U 1 1 5B1959EC
P 4650 2000
F 0 "D1" H 4650 2100 50  0000 C CNN
F 1 "LED" H 4650 1900 50  0000 C CNN
F 2 "LED_SMD:LED_1206_3216Metric" H 4650 2000 50  0001 C CNN
F 3 "" H 4650 2000 50  0001 C CNN
	1    4650 2000
	0    -1   -1   0   
$EndComp
$Comp
L iccfpga-devboard-rescue:GND-pearldiver-rescue #PWR0205
U 1 1 5B1959F2
P 4650 2150
F 0 "#PWR0205" H 4650 1900 50  0001 C CNN
F 1 "GND" H 4650 2000 50  0000 C CNN
F 2 "" H 4650 2150 50  0001 C CNN
F 3 "" H 4650 2150 50  0001 C CNN
	1    4650 2150
	1    0    0    -1  
$EndComp
$Comp
L iccfpga-devboard-rescue:R-pearldiver-rescue R23
U 1 1 5B195BA0
P 4650 1650
F 0 "R23" V 4730 1650 50  0000 C CNN
F 1 "270" V 4650 1650 50  0000 C CNN
F 2 "Resistor_SMD:R_1206_3216Metric" V 4580 1650 50  0001 C CNN
F 3 "" H 4650 1650 50  0001 C CNN
	1    4650 1650
	1    0    0    -1  
$EndComp
Wire Wire Line
	4650 1800 4650 1850
$Comp
L iccfpga-devboard-rescue:+3V3-pearldiver-rescue #PWR0206
U 1 1 5B195C23
P 4650 1500
F 0 "#PWR0206" H 4650 1350 50  0001 C CNN
F 1 "+3V3" H 4650 1640 50  0000 C CNN
F 2 "" H 4650 1500 50  0001 C CNN
F 3 "" H 4650 1500 50  0001 C CNN
	1    4650 1500
	1    0    0    -1  
$EndComp
$Comp
L iccfpga-devboard-rescue:C-pearldiver-rescue C29
U 1 1 5ADF4C95
P 2850 1400
F 0 "C29" H 2690 1320 50  0000 L CNN
F 1 "100n" H 2660 1480 50  0000 L CNN
F 2 "Capacitor_SMD:C_0603_1608Metric" H 2888 1250 50  0001 C CNN
F 3 "" H 2850 1400 50  0001 C CNN
	1    2850 1400
	1    0    0    -1  
$EndComp
$Comp
L iccfpga-devboard-rescue:R-pearldiver-rescue R26
U 1 1 5ADF4CCF
P 3250 1800
F 0 "R26" V 3250 1800 50  0000 C CNN
F 1 "5.6k" V 3150 1800 50  0000 C CNN
F 2 "Resistor_SMD:R_0603_1608Metric" V 3180 1800 50  0001 C CNN
F 3 "" H 3250 1800 50  0001 C CNN
	1    3250 1800
	-1   0    0    -1  
$EndComp
$Comp
L iccfpga-devboard-rescue:R-pearldiver-rescue R27
U 1 1 5ADF4CD5
P 3250 2250
F 0 "R27" V 3250 2250 50  0000 C CNN
F 1 "22k" V 3150 2200 50  0000 C CNN
F 2 "Resistor_SMD:R_0603_1608Metric" V 3180 2250 50  0001 C CNN
F 3 "" H 3250 2250 50  0001 C CNN
	1    3250 2250
	-1   0    0    -1  
$EndComp
$Comp
L iccfpga-devboard-rescue:C-pearldiver-rescue C22
U 1 1 5ADF4CEF
P 1000 1400
F 0 "C22" H 1025 1500 50  0000 L CNN
F 1 "100n" H 1020 1300 50  0000 L CNN
F 2 "Capacitor_SMD:C_0603_1608Metric" H 1038 1250 50  0001 C CNN
F 3 "" H 1000 1400 50  0001 C CNN
	1    1000 1400
	-1   0    0    -1  
$EndComp
$Comp
L iccfpga-devboard-rescue:C-pearldiver-rescue C23
U 1 1 5ADF4CF5
P 1250 1400
F 0 "C23" H 1100 1300 50  0000 L CNN
F 1 "10µ" H 1100 1500 50  0000 L CNN
F 2 "Capacitor_SMD:C_1206_3216Metric" H 1288 1250 50  0001 C CNN
F 3 "" H 1250 1400 50  0001 C CNN
	1    1250 1400
	1    0    0    -1  
$EndComp
$Comp
L iccfpga-devboard-rescue:C-pearldiver-rescue C26
U 1 1 5ADF4CFB
P 1500 1400
F 0 "C26" H 1500 1300 50  0000 L CNN
F 1 "10µ" H 1500 1500 50  0000 L CNN
F 2 "Capacitor_SMD:C_1206_3216Metric" H 1538 1250 50  0001 C CNN
F 3 "" H 1500 1400 50  0001 C CNN
	1    1500 1400
	-1   0    0    -1  
$EndComp
$Comp
L iccfpga-devboard-rescue:BD9D321EFJ-pearldiver-rescue U7
U 1 1 5B166084
P 2300 1650
F 0 "U7" H 2050 1975 60  0000 C CNN
F 1 "BD9D321EFJ" H 2300 1100 60  0000 C CNN
F 2 "Package_SO:HTSOP-8-1EP_3.9x4.9mm_P1.27mm_ThermalVias" H 1925 1250 60  0001 C CNN
F 3 "" H 1925 1250 60  0001 C CNN
	1    2300 1650
	1    0    0    -1  
$EndComp
$Comp
L iccfpga-devboard-rescue:C-pearldiver-rescue C24
U 1 1 5B166281
P 1250 2100
F 0 "C24" H 1275 2200 50  0000 L CNN
F 1 "1µ" H 1275 2000 50  0000 L CNN
F 2 "Capacitor_SMD:C_0805_2012Metric" H 1288 1950 50  0001 C CNN
F 3 "" H 1250 2100 50  0001 C CNN
F 4 "-" H 1250 2100 60  0001 C CNN "OrderNr"
F 5 "-" H 1250 2100 60  0001 C CNN "Distributor"
	1    1250 2100
	1    0    0    -1  
$EndComp
$Comp
L iccfpga-devboard-rescue:C-pearldiver-rescue C27
U 1 1 5B16637C
P 1500 2100
F 0 "C27" H 1525 2200 50  0000 L CNN
F 1 "3.3n" H 1525 2000 50  0000 L CNN
F 2 "Capacitor_SMD:C_0603_1608Metric" H 1538 1950 50  0001 C CNN
F 3 "" H 1500 2100 50  0001 C CNN
	1    1500 2100
	1    0    0    -1  
$EndComp
$Comp
L iccfpga-devboard-rescue:C-pearldiver-rescue C32
U 1 1 5B1666C4
P 3500 1600
F 0 "C32" H 3525 1700 50  0000 L CNN
F 1 "47µ" H 3525 1500 50  0000 L CNN
F 2 "Capacitor_SMD:C_1210_3225Metric" H 3538 1450 50  0001 C CNN
F 3 "" H 3500 1600 50  0001 C CNN
	1    3500 1600
	1    0    0    -1  
$EndComp
$Comp
L iccfpga-devboard-rescue:C-pearldiver-rescue C33
U 1 1 5B1667BF
P 3700 1600
F 0 "C33" H 3725 1700 50  0000 L CNN
F 1 "47µ" H 3725 1500 50  0000 L CNN
F 2 "Capacitor_SMD:C_1210_3225Metric" H 3738 1450 50  0001 C CNN
F 3 "" H 3700 1600 50  0001 C CNN
	1    3700 1600
	1    0    0    -1  
$EndComp
$Comp
L iccfpga-devboard-rescue:L-pearldiver-rescue L2
U 1 1 5B1669AB
P 3050 1200
F 0 "L2" V 3000 1200 50  0000 C CNN
F 1 "2,2µH" V 3125 1200 50  0000 C CNN
F 2 "myfootprints:SPM4012" H 3050 1200 50  0001 C CNN
F 3 "" H 3050 1200 50  0001 C CNN
	1    3050 1200
	0    -1   -1   0   
$EndComp
$Comp
L iccfpga-devboard-rescue:GND-pearldiver-rescue #PWR0213
U 1 1 5B166ADD
P 1750 2300
F 0 "#PWR0213" H 1750 2050 50  0001 C CNN
F 1 "GND" H 1750 2150 50  0000 C CNN
F 2 "" H 1750 2300 50  0001 C CNN
F 3 "" H 1750 2300 50  0001 C CNN
	1    1750 2300
	1    0    0    -1  
$EndComp
$Comp
L iccfpga-devboard-rescue:GND-pearldiver-rescue #PWR0214
U 1 1 5B166F68
P 1500 2300
F 0 "#PWR0214" H 1500 2050 50  0001 C CNN
F 1 "GND" H 1500 2150 50  0000 C CNN
F 2 "" H 1500 2300 50  0001 C CNN
F 3 "" H 1500 2300 50  0001 C CNN
	1    1500 2300
	1    0    0    -1  
$EndComp
$Comp
L iccfpga-devboard-rescue:GND-pearldiver-rescue #PWR0215
U 1 1 5B166FD0
P 1250 2300
F 0 "#PWR0215" H 1250 2050 50  0001 C CNN
F 1 "GND" H 1250 2150 50  0000 C CNN
F 2 "" H 1250 2300 50  0001 C CNN
F 3 "" H 1250 2300 50  0001 C CNN
	1    1250 2300
	1    0    0    -1  
$EndComp
$Comp
L iccfpga-devboard-rescue:GND-pearldiver-rescue #PWR0216
U 1 1 5B167EDC
P 3250 2400
F 0 "#PWR0216" H 3250 2150 50  0001 C CNN
F 1 "GND" H 3250 2250 50  0000 C CNN
F 2 "" H 3250 2400 50  0001 C CNN
F 3 "" H 3250 2400 50  0001 C CNN
	1    3250 2400
	1    0    0    -1  
$EndComp
$Comp
L iccfpga-devboard-rescue:GND-pearldiver-rescue #PWR0217
U 1 1 5B168058
P 3500 1950
F 0 "#PWR0217" H 3500 1700 50  0001 C CNN
F 1 "GND" H 3500 1800 50  0000 C CNN
F 2 "" H 3500 1950 50  0001 C CNN
F 3 "" H 3500 1950 50  0001 C CNN
	1    3500 1950
	1    0    0    -1  
$EndComp
$Comp
L iccfpga-devboard-rescue:GND-pearldiver-rescue #PWR0218
U 1 1 5B1680C0
P 3700 1950
F 0 "#PWR0218" H 3700 1700 50  0001 C CNN
F 1 "GND" H 3700 1800 50  0000 C CNN
F 2 "" H 3700 1950 50  0001 C CNN
F 3 "" H 3700 1950 50  0001 C CNN
	1    3700 1950
	1    0    0    -1  
$EndComp
$Comp
L iccfpga-devboard-rescue:+5V-pearldiver-rescue #PWR0219
U 1 1 5B169AAA
P 1000 1150
F 0 "#PWR0219" H 1000 1000 50  0001 C CNN
F 1 "+5V" H 1000 1290 50  0000 C CNN
F 2 "" H 1000 1150 50  0001 C CNN
F 3 "" H 1000 1150 50  0001 C CNN
	1    1000 1150
	1    0    0    -1  
$EndComp
$Comp
L iccfpga-devboard-rescue:GND-pearldiver-rescue #PWR0220
U 1 1 5B16A5B6
P 1000 1600
F 0 "#PWR0220" H 1000 1350 50  0001 C CNN
F 1 "GND" H 1000 1450 50  0000 C CNN
F 2 "" H 1000 1600 50  0001 C CNN
F 3 "" H 1000 1600 50  0001 C CNN
	1    1000 1600
	1    0    0    -1  
$EndComp
$Comp
L iccfpga-devboard-rescue:GND-pearldiver-rescue #PWR0221
U 1 1 5B16A625
P 1250 1600
F 0 "#PWR0221" H 1250 1350 50  0001 C CNN
F 1 "GND" H 1250 1450 50  0000 C CNN
F 2 "" H 1250 1600 50  0001 C CNN
F 3 "" H 1250 1600 50  0001 C CNN
	1    1250 1600
	1    0    0    -1  
$EndComp
$Comp
L iccfpga-devboard-rescue:GND-pearldiver-rescue #PWR0222
U 1 1 5B16A68D
P 1500 1600
F 0 "#PWR0222" H 1500 1350 50  0001 C CNN
F 1 "GND" H 1500 1450 50  0000 C CNN
F 2 "" H 1500 1600 50  0001 C CNN
F 3 "" H 1500 1600 50  0001 C CNN
	1    1500 1600
	1    0    0    -1  
$EndComp
Wire Wire Line
	1250 1800 1250 1950
Wire Wire Line
	1500 1900 1500 1950
Wire Wire Line
	1250 2300 1250 2250
Wire Wire Line
	1500 2250 1500 2300
Wire Wire Line
	3500 1750 3500 1950
Wire Wire Line
	3700 1950 3700 1750
Wire Wire Line
	3500 1200 3500 1450
Connection ~ 3500 1200
Wire Wire Line
	2800 1600 2850 1600
Wire Wire Line
	2850 1600 2850 1550
Wire Wire Line
	2850 1250 2850 1200
Wire Wire Line
	2800 1200 2850 1200
Connection ~ 2850 1200
Wire Wire Line
	2800 2050 3250 2050
Wire Wire Line
	1250 1800 1800 1800
Wire Wire Line
	1500 1900 1800 1900
Wire Wire Line
	1800 2000 1750 2000
Wire Wire Line
	1750 2000 1750 2100
Wire Wire Line
	1800 2100 1750 2100
Connection ~ 1750 2100
Wire Wire Line
	1800 1450 1700 1450
Wire Wire Line
	1700 1450 1700 1200
Wire Wire Line
	1000 1200 1250 1200
Wire Wire Line
	1000 1150 1000 1200
Connection ~ 1700 1200
Connection ~ 1000 1200
Wire Wire Line
	1250 1250 1250 1200
Connection ~ 1250 1200
Wire Wire Line
	1500 1250 1500 1200
Connection ~ 1500 1200
Wire Wire Line
	1500 1600 1500 1550
Wire Wire Line
	1250 1550 1250 1600
Wire Wire Line
	1000 1600 1000 1550
Wire Wire Line
	3250 1950 3250 2050
Connection ~ 3250 2050
Connection ~ 3700 1200
Wire Wire Line
	3700 1200 3700 1450
Wire Wire Line
	4100 1100 4100 1200
Wire Wire Line
	3500 1200 3700 1200
Wire Wire Line
	2850 1200 2900 1200
Wire Wire Line
	1750 2100 1750 2300
Wire Wire Line
	1700 1200 1800 1200
Wire Wire Line
	1000 1200 1000 1250
Wire Wire Line
	1250 1200 1500 1200
Wire Wire Line
	1500 1200 1700 1200
Wire Wire Line
	3250 2050 3250 2100
Text Notes 4650 1150 0    50   ~ 0
Stromversorgung
Wire Wire Line
	1800 7150 1750 7150
Wire Wire Line
	1750 7150 1750 7050
Wire Wire Line
	2450 5850 2500 5850
Wire Wire Line
	2400 9500 3350 9500
Wire Wire Line
	1200 9950 1200 10400
Text Label 2500 5850 2    50   ~ 0
STM32_RSTN
$Comp
L power:+3V3 #PWR0226
U 1 1 5D5C9F95
P 4100 1100
F 0 "#PWR0226" H 4100 950 50  0001 C CNN
F 1 "+3V3" H 4115 1273 50  0000 C CNN
F 2 "" H 4100 1100 50  0001 C CNN
F 3 "" H 4100 1100 50  0001 C CNN
	1    4100 1100
	1    0    0    -1  
$EndComp
Wire Wire Line
	3000 7150 2550 7150
$Comp
L MCU_ST_STM32F0:STM32F042F6Px U8
U 1 1 5D8C95FF
P 3600 6550
F 0 "U8" H 3600 5661 50  0000 C CNN
F 1 "STM32F042F6Px" H 3800 5750 50  0000 C CNN
F 2 "Package_SO:TSSOP-20_4.4x6.5mm_P0.65mm" H 3100 5850 50  0001 R CNN
F 3 "http://www.st.com/st-web-ui/static/active/en/resource/technical/document/datasheet/DM00105814.pdf" H 3600 6550 50  0001 C CNN
F 4 "D" H 3600 6550 50  0001 C CNN "Distributor"
F 5 "497-17344-ND" H 3600 6550 50  0001 C CNN "OrderNr"
	1    3600 6550
	1    0    0    -1  
$EndComp
Text Label 4250 6850 0    50   ~ 0
USB_D-
Text Label 4250 6950 0    50   ~ 0
USB_D+
Text Label 4250 7050 0    50   ~ 0
STM32_SWDIO
Text Label 4250 7150 0    50   ~ 0
STM32_SWCLK
Wire Wire Line
	4200 7050 4500 7050
Wire Wire Line
	4200 7150 4500 7150
Wire Wire Line
	4200 6050 4550 6050
Wire Wire Line
	4200 6150 4550 6150
Wire Wire Line
	4200 6250 4550 6250
Wire Wire Line
	4200 6350 4550 6350
Wire Wire Line
	4200 6550 4550 6550
Wire Wire Line
	4200 6650 4550 6650
Wire Wire Line
	4200 6750 4550 6750
Wire Wire Line
	4200 6450 4550 6450
Text Label 4250 6450 0    50   ~ 0
SPI1_SS
Text Label 4250 6750 0    50   ~ 0
SPI1_MOSI
Text Label 4250 6650 0    50   ~ 0
SPI1_MISO
Text Label 4250 6550 0    50   ~ 0
SPI1_SCK
Text Label 7200 7850 0    50   ~ 0
TDI
Text Label 4250 6150 0    50   ~ 0
TDO
Text Label 7200 8400 0    50   ~ 0
TMS
Text Label 7200 8950 0    50   ~ 0
TCK
Wire Wire Line
	4200 6950 4500 6950
Wire Wire Line
	4200 6850 4550 6850
$Comp
L power:+3V3 #PWR0230
U 1 1 5DC4EDB0
P 3500 5750
F 0 "#PWR0230" H 3500 5600 50  0001 C CNN
F 1 "+3V3" H 3515 5923 50  0000 C CNN
F 2 "" H 3500 5750 50  0001 C CNN
F 3 "" H 3500 5750 50  0001 C CNN
	1    3500 5750
	1    0    0    -1  
$EndComp
Wire Wire Line
	3500 5750 3500 5800
Wire Wire Line
	3400 5850 3400 5800
Wire Wire Line
	3400 5800 3500 5800
Connection ~ 3500 5800
Wire Wire Line
	3500 5800 3500 5850
$Comp
L power:GND #PWR0231
U 1 1 5DCAB77A
P 3400 7350
F 0 "#PWR0231" H 3400 7100 50  0001 C CNN
F 1 "GND" H 3405 7177 50  0000 C CNN
F 2 "" H 3400 7350 50  0001 C CNN
F 3 "" H 3400 7350 50  0001 C CNN
	1    3400 7350
	1    0    0    -1  
$EndComp
$Comp
L iccfpga-devboard-rescue:C-pearldiver-rescue C31
U 1 1 5DCABC36
P 4150 5200
F 0 "C31" H 4175 5300 50  0000 L CNN
F 1 "100n" H 4175 5100 50  0000 L CNN
F 2 "Capacitor_SMD:C_0603_1608Metric" H 4188 5050 50  0001 C CNN
F 3 "" H 4150 5200 50  0000 C CNN
	1    4150 5200
	1    0    0    -1  
$EndComp
$Comp
L power:+3V3 #PWR0232
U 1 1 5DCACA47
P 4150 5050
F 0 "#PWR0232" H 4150 4900 50  0001 C CNN
F 1 "+3V3" H 4165 5223 50  0000 C CNN
F 2 "" H 4150 5050 50  0001 C CNN
F 3 "" H 4150 5050 50  0001 C CNN
	1    4150 5050
	1    0    0    -1  
$EndComp
$Comp
L power:GND #PWR0233
U 1 1 5DCACEC0
P 4150 5350
F 0 "#PWR0233" H 4150 5100 50  0001 C CNN
F 1 "GND" H 4155 5177 50  0000 C CNN
F 2 "" H 4150 5350 50  0001 C CNN
F 3 "" H 4150 5350 50  0001 C CNN
	1    4150 5350
	1    0    0    -1  
$EndComp
Wire Wire Line
	2400 9700 3350 9700
$Comp
L iccfpga-devboard-rescue:MYUSB_B-pearldiver-rescue P1
U 1 1 5DD64C1C
P 1300 8600
F 0 "P1" H 1500 8400 50  0000 C CNN
F 1 "10104110-0001LF" H 1150 8800 50  0000 C CNN
F 2 "myfootprints:MICROUSBB" V 1250 8500 50  0001 C CNN
F 3 "" V 1250 8500 50  0000 C CNN
	1    1300 8600
	0    -1   1    0   
$EndComp
$Comp
L iccfpga-devboard-rescue:GND-pearldiver-rescue #PWR0234
U 1 1 5DD659D2
P 1200 8900
F 0 "#PWR0234" H 1200 8650 50  0001 C CNN
F 1 "GND" H 1200 8750 50  0000 C CNN
F 2 "" H 1200 8900 50  0000 C CNN
F 3 "" H 1200 8900 50  0000 C CNN
	1    1200 8900
	1    0    0    -1  
$EndComp
$Comp
L iccfpga-devboard-rescue:GND-pearldiver-rescue #PWR0235
U 1 1 5DD65E02
P 1600 8700
F 0 "#PWR0235" H 1600 8450 50  0001 C CNN
F 1 "GND" H 1600 8550 50  0000 C CNN
F 2 "" H 1600 8700 50  0000 C CNN
F 3 "" H 1600 8700 50  0000 C CNN
	1    1600 8700
	1    0    0    -1  
$EndComp
$Comp
L Jumper:SolderJumper_3_Open JP1
U 1 1 5DD67290
P 2100 8750
F 0 "JP1" H 2100 8955 50  0000 C CNN
F 1 "USB_5V_SEL" H 2100 8864 50  0000 C CNN
F 2 "Jumper:SolderJumper-3_P1.3mm_Open_Pad1.0x1.5mm" H 2100 8750 50  0001 C CNN
F 3 "~" H 2100 8750 50  0001 C CNN
	1    2100 8750
	0    -1   -1   0   
$EndComp
Wire Wire Line
	1600 8400 2100 8400
Wire Wire Line
	3200 1200 3250 1200
$Comp
L iccfpga-devboard-rescue:R-pearldiver-rescue R29
U 1 1 5DF0E7C7
P 3250 1400
F 0 "R29" V 3250 1400 50  0000 C CNN
F 1 "68k" V 3150 1400 50  0000 C CNN
F 2 "Resistor_SMD:R_0603_1608Metric" V 3180 1400 50  0001 C CNN
F 3 "" H 3250 1400 50  0001 C CNN
	1    3250 1400
	-1   0    0    -1  
$EndComp
Wire Wire Line
	3250 1200 3250 1250
Connection ~ 3250 1200
Wire Wire Line
	3250 1200 3500 1200
Wire Wire Line
	3250 1550 3250 1650
$Comp
L iccfpga-devboard-rescue:+5V-pearldiver-rescue #PWR0168
U 1 1 5E026647
P 3150 8750
F 0 "#PWR0168" H 3150 8600 50  0001 C CNN
F 1 "+5V" V 3165 8878 50  0000 L CNN
F 2 "" H 3150 8750 50  0001 C CNN
F 3 "" H 3150 8750 50  0001 C CNN
	1    3150 8750
	0    1    1    0   
$EndComp
Wire Wire Line
	3700 1200 4100 1200
Wire Wire Line
	1900 9450 1900 9600
Wire Wire Line
	1600 9450 1900 9450
Wire Wire Line
	2100 8400 2100 8550
Wire Wire Line
	2100 8950 2100 9150
Wire Wire Line
	2100 9150 1900 9150
Wire Wire Line
	1900 9150 1900 9450
Connection ~ 1900 9450
$Comp
L Connector_Generic:Conn_01x05 J2
U 1 1 5C9D28A3
P 14000 8950
F 0 "J2" H 14080 8992 50  0000 L CNN
F 1 "Conn_01x05" H 14080 8901 50  0000 L CNN
F 2 "Connector_PinSocket_2.54mm:PinSocket_1x05_P2.54mm_Horizontal" H 14000 8950 50  0001 C CNN
F 3 "~" H 14000 8950 50  0001 C CNN
	1    14000 8950
	1    0    0    -1  
$EndComp
Wire Wire Line
	13800 8850 13500 8850
Wire Wire Line
	13800 8950 13500 8950
Wire Wire Line
	13800 9050 13650 9050
NoConn ~ 13800 8750
NoConn ~ 13800 9150
Text Label 13500 8850 0    50   ~ 0
RXD
Text Label 13500 8950 0    50   ~ 0
TXD
$Comp
L iccfpga-devboard-rescue:GND-pearldiver-rescue #PWR0167
U 1 1 5CA88388
P 13650 9050
F 0 "#PWR0167" H 13650 8800 50  0001 C CNN
F 1 "GND" H 13655 8877 50  0000 C CNN
F 2 "" H 13650 9050 50  0001 C CNN
F 3 "" H 13650 9050 50  0001 C CNN
	1    13650 9050
	1    0    0    -1  
$EndComp
$Comp
L Connector_Generic:Conn_01x04 J3
U 1 1 5CAAF934
P 15400 8150
F 0 "J3" H 15480 8142 50  0000 L CNN
F 1 "Conn_01x04" H 15480 8051 50  0000 L CNN
F 2 "Connector_PinHeader_1.27mm:PinHeader_1x04_P1.27mm_Vertical" H 15400 8150 50  0001 C CNN
F 3 "~" H 15400 8150 50  0001 C CNN
	1    15400 8150
	1    0    0    -1  
$EndComp
Wire Wire Line
	15200 8050 14900 8050
Wire Wire Line
	15200 8150 14900 8150
Wire Wire Line
	15200 8250 14900 8250
Wire Wire Line
	15200 8350 15050 8350
$Comp
L iccfpga-devboard-rescue:GND-pearldiver-rescue #PWR0139
U 1 1 5CB4193C
P 15050 8350
F 0 "#PWR0139" H 15050 8100 50  0001 C CNN
F 1 "GND" H 15055 8177 50  0000 C CNN
F 2 "" H 15050 8350 50  0001 C CNN
F 3 "" H 15050 8350 50  0001 C CNN
	1    15050 8350
	1    0    0    -1  
$EndComp
Text Label 15150 8050 2    50   ~ 0
SWD_RESET
Text Label 15150 8150 2    50   ~ 0
SWD_IO
Text Label 15150 8250 2    50   ~ 0
SWD_CLK
$Comp
L Connector_Generic:Conn_01x04 J4
U 1 1 5CB44624
P 15400 8900
F 0 "J4" H 15480 8892 50  0000 L CNN
F 1 "Conn_01x04" H 15480 8801 50  0000 L CNN
F 2 "Connector_PinHeader_1.27mm:PinHeader_1x04_P1.27mm_Vertical" H 15400 8900 50  0001 C CNN
F 3 "~" H 15400 8900 50  0001 C CNN
	1    15400 8900
	1    0    0    -1  
$EndComp
Wire Wire Line
	15200 8800 14900 8800
Wire Wire Line
	15200 8900 14900 8900
Wire Wire Line
	15200 9000 14900 9000
Wire Wire Line
	15200 9100 15050 9100
$Comp
L iccfpga-devboard-rescue:GND-pearldiver-rescue #PWR0140
U 1 1 5CB44632
P 15050 9100
F 0 "#PWR0140" H 15050 8850 50  0001 C CNN
F 1 "GND" H 15055 8927 50  0000 C CNN
F 2 "" H 15050 9100 50  0001 C CNN
F 3 "" H 15050 9100 50  0001 C CNN
	1    15050 9100
	1    0    0    -1  
$EndComp
Text Label 15150 8800 2    50   ~ 0
STM32_RSTN
Text Label 15150 8900 2    50   ~ 0
STM32_SWDIO
Text Label 15150 9000 2    50   ~ 0
STM32_SWCLK
$Comp
L Connector_Generic:Conn_02x08_Odd_Even J5
U 1 1 5CBCCA4E
P 13800 7350
F 0 "J5" H 13850 7867 50  0000 C CNN
F 1 "Conn_02x08_Odd_Even" H 13850 7776 50  0000 C CNN
F 2 "Connector_IDC:IDC-Header_2x08_P2.54mm_Vertical" H 13800 7350 50  0001 C CNN
F 3 "~" H 13800 7350 50  0001 C CNN
	1    13800 7350
	1    0    0    -1  
$EndComp
Wire Wire Line
	14100 7050 14450 7050
Wire Wire Line
	14100 7150 14450 7150
Wire Wire Line
	14100 7250 14450 7250
Wire Wire Line
	14100 7350 14450 7350
Wire Wire Line
	14100 7450 14450 7450
Wire Wire Line
	14100 7550 14450 7550
Wire Wire Line
	13600 7050 13250 7050
Wire Wire Line
	13600 7150 13250 7150
Wire Wire Line
	13600 7250 13250 7250
Wire Wire Line
	13600 7350 13250 7350
Wire Wire Line
	13600 7450 13250 7450
Wire Wire Line
	13600 7550 13250 7550
Text Label 13500 7050 2    50   ~ 0
SPI1_SS
Text Label 13500 7150 2    50   ~ 0
OUT0
Text Label 13500 7250 2    50   ~ 0
SPI1_MOSI
Text Label 14200 7050 0    50   ~ 0
SPI1_SCK
Text Label 14200 7150 0    50   ~ 0
IN2
Text Label 14200 7250 0    50   ~ 0
SPI1_MISO
Text Label 13350 7350 0    50   ~ 0
OUT3
Text Label 14200 7350 0    50   ~ 0
OUT2
Text Label 13350 7450 0    50   ~ 0
OUT1
Text Label 14200 7450 0    50   ~ 0
IN3
Text Label 13350 7550 0    50   ~ 0
IN1
Text Label 14200 7550 0    50   ~ 0
IN0
$Comp
L iccfpga-devboard-rescue:GND-pearldiver-rescue #PWR0169
U 1 1 5CDDD8BB
P 14200 7800
F 0 "#PWR0169" H 14200 7550 50  0001 C CNN
F 1 "GND" H 14205 7627 50  0000 C CNN
F 2 "" H 14200 7800 50  0001 C CNN
F 3 "" H 14200 7800 50  0001 C CNN
	1    14200 7800
	1    0    0    -1  
$EndComp
Wire Wire Line
	14100 7650 14200 7650
Wire Wire Line
	14200 7650 14200 7750
Wire Wire Line
	14100 7750 14200 7750
Connection ~ 14200 7750
Wire Wire Line
	14200 7750 14200 7800
$Comp
L iccfpga-devboard-rescue:+3V3-pearldiver-rescue #PWR0170
U 1 1 5CE2A456
P 13450 7650
F 0 "#PWR0170" H 13450 7500 50  0001 C CNN
F 1 "+3V3" V 13465 7778 50  0000 L CNN
F 2 "" H 13450 7650 50  0001 C CNN
F 3 "" H 13450 7650 50  0001 C CNN
	1    13450 7650
	0    -1   -1   0   
$EndComp
Wire Wire Line
	13450 7650 13550 7650
Wire Wire Line
	13600 7750 13550 7750
Wire Wire Line
	13550 7750 13550 7650
Connection ~ 13550 7650
Wire Wire Line
	13550 7650 13600 7650
Wire Wire Line
	3000 6750 2750 6750
Wire Wire Line
	3000 6850 2750 6850
Text Label 4250 6250 0    50   ~ 0
RXD
Text Label 4250 6350 0    50   ~ 0
TXD
Wire Wire Line
	2850 7050 2850 7500
Wire Wire Line
	2850 7050 3000 7050
$Comp
L 74xx:74LVC125 U4
U 1 1 5D0D984B
P 6750 7850
F 0 "U4" H 6750 8167 50  0000 C CNN
F 1 "74LVC125" H 6750 8076 50  0000 C CNN
F 2 "Package_SO:SOIC-14_3.9x8.7mm_P1.27mm" H 6750 7850 50  0001 C CNN
F 3 "http://www.ti.com/lit/gpn/sn74LVC125" H 6750 7850 50  0001 C CNN
	1    6750 7850
	1    0    0    -1  
$EndComp
$Comp
L 74xx:74LVC125 U4
U 2 1 5D0DBD53
P 6700 8400
F 0 "U4" H 6700 8717 50  0000 C CNN
F 1 "74LVC125" H 6700 8626 50  0000 C CNN
F 2 "" H 6700 8400 50  0001 C CNN
F 3 "http://www.ti.com/lit/gpn/sn74LVC125" H 6700 8400 50  0001 C CNN
	2    6700 8400
	1    0    0    -1  
$EndComp
$Comp
L 74xx:74LVC125 U4
U 3 1 5D0DC4CF
P 6700 8950
F 0 "U4" H 6700 9267 50  0000 C CNN
F 1 "74LVC125" H 6700 9176 50  0000 C CNN
F 2 "" H 6700 8950 50  0001 C CNN
F 3 "http://www.ti.com/lit/gpn/sn74LVC125" H 6700 8950 50  0001 C CNN
	3    6700 8950
	1    0    0    -1  
$EndComp
Wire Wire Line
	6750 8100 6250 8100
Wire Wire Line
	6250 8100 6250 8650
Wire Wire Line
	6700 8650 6250 8650
Connection ~ 6250 8650
Wire Wire Line
	6250 8650 6250 9200
Wire Wire Line
	6250 9850 6250 9750
$Comp
L iccfpga-devboard-rescue:GND-pearldiver-rescue #PWR0173
U 1 1 5D0AE3C2
P 6250 9850
F 0 "#PWR0173" H 6250 9600 50  0001 C CNN
F 1 "GND" H 6250 9700 50  0000 C CNN
F 2 "" H 6250 9850 50  0000 C CNN
F 3 "" H 6250 9850 50  0000 C CNN
	1    6250 9850
	1    0    0    -1  
$EndComp
Wire Wire Line
	5750 9200 5850 9200
Connection ~ 6250 9200
Wire Wire Line
	6250 9200 6250 9350
Wire Wire Line
	6150 9200 6250 9200
$Comp
L iccfpga-devboard-rescue:+3.3V-pearldiver-rescue #PWR0174
U 1 1 5D031120
P 5750 9200
F 0 "#PWR0174" H 5750 9050 50  0001 C CNN
F 1 "+3.3V" H 5750 9340 50  0000 C CNN
F 2 "" H 5750 9200 50  0000 C CNN
F 3 "" H 5750 9200 50  0000 C CNN
	1    5750 9200
	0    -1   -1   0   
$EndComp
$Comp
L iccfpga-devboard-rescue:R-pearldiver-rescue R28
U 1 1 5D030A5C
P 6000 9200
F 0 "R28" V 6080 9200 50  0000 C CNN
F 1 "10k" V 6000 9200 50  0000 C CNN
F 2 "Resistor_SMD:R_0603_1608Metric" V 5930 9200 50  0001 C CNN
F 3 "" H 6000 9200 50  0000 C CNN
	1    6000 9200
	0    1    1    0   
$EndComp
$Comp
L Jumper:Jumper_2_Open JP2
U 1 1 5DC1DFA5
P 6250 9550
F 0 "JP2" H 6250 9785 50  0000 C CNN
F 1 "Jumper_2_Open" H 6250 9694 50  0000 C CNN
F 2 "Connector_PinHeader_2.54mm:PinHeader_1x02_P2.54mm_Vertical" H 6250 9550 50  0001 C CNN
F 3 "~" H 6250 9550 50  0001 C CNN
	1    6250 9550
	0    1    1    0   
$EndComp
Wire Wire Line
	6250 9200 6700 9200
Wire Wire Line
	7050 7850 7350 7850
Wire Wire Line
	7000 8400 7350 8400
Wire Wire Line
	7000 8950 7350 8950
Wire Wire Line
	6400 8950 5950 8950
Wire Wire Line
	6400 8400 5950 8400
Wire Wire Line
	6450 7850 5950 7850
Text Label 6000 7850 0    50   ~ 0
STM_TDI
Text Label 4250 6050 0    50   ~ 0
STM_TDI
Text Label 2950 6750 2    50   ~ 0
STM_TMS
Text Label 2950 6850 2    50   ~ 0
STM_TCK
$Comp
L 74xx:74LVC125 U4
U 5 1 5D28819B
P 7400 9850
F 0 "U4" H 7630 9896 50  0000 L CNN
F 1 "74LVC125" H 7630 9805 50  0000 L CNN
F 2 "" H 7400 9850 50  0001 C CNN
F 3 "http://www.ti.com/lit/gpn/sn74LVC125" H 7400 9850 50  0001 C CNN
	5    7400 9850
	1    0    0    -1  
$EndComp
$Comp
L iccfpga-devboard-rescue:+3V3-pearldiver-rescue #PWR0175
U 1 1 5D28A32D
P 7400 9350
F 0 "#PWR0175" H 7400 9200 50  0001 C CNN
F 1 "+3V3" H 7415 9523 50  0000 C CNN
F 2 "" H 7400 9350 50  0001 C CNN
F 3 "" H 7400 9350 50  0001 C CNN
	1    7400 9350
	1    0    0    -1  
$EndComp
$Comp
L iccfpga-devboard-rescue:GND-pearldiver-rescue #PWR0176
U 1 1 5D28B47F
P 7400 10350
F 0 "#PWR0176" H 7400 10100 50  0001 C CNN
F 1 "GND" H 7405 10177 50  0000 C CNN
F 2 "" H 7400 10350 50  0001 C CNN
F 3 "" H 7400 10350 50  0001 C CNN
	1    7400 10350
	1    0    0    -1  
$EndComp
$Comp
L iccfpga-devboard-rescue:C-pearldiver-rescue C17
U 1 1 5D28BB18
P 7900 9850
F 0 "C17" H 7925 9950 50  0000 L CNN
F 1 "100n" H 7925 9750 50  0000 L CNN
F 2 "Capacitor_SMD:C_0603_1608Metric" H 7938 9700 50  0001 C CNN
F 3 "" H 7900 9850 50  0000 C CNN
	1    7900 9850
	1    0    0    -1  
$EndComp
$Comp
L power:+3V3 #PWR0177
U 1 1 5D28BB22
P 7900 9700
F 0 "#PWR0177" H 7900 9550 50  0001 C CNN
F 1 "+3V3" H 7915 9873 50  0000 C CNN
F 2 "" H 7900 9700 50  0001 C CNN
F 3 "" H 7900 9700 50  0001 C CNN
	1    7900 9700
	1    0    0    -1  
$EndComp
$Comp
L power:GND #PWR0178
U 1 1 5D28BB2C
P 7900 10000
F 0 "#PWR0178" H 7900 9750 50  0001 C CNN
F 1 "GND" H 7905 9827 50  0000 C CNN
F 2 "" H 7900 10000 50  0001 C CNN
F 3 "" H 7900 10000 50  0001 C CNN
	1    7900 10000
	1    0    0    -1  
$EndComp
Text Label 6200 8400 2    50   ~ 0
STM_TMS
Text Label 6200 8950 2    50   ~ 0
STM_TCK
Text Label 3850 9500 0    50   ~ 0
USB_D-
Text Label 3850 9700 0    50   ~ 0
USB_D+
Wire Wire Line
	1900 9600 1900 9750
Connection ~ 1900 9600
$Comp
L iccfpga-devboard-rescue:GND-pearldiver-rescue #PWR0179
U 1 1 5D475EB3
P 1900 10150
F 0 "#PWR0179" H 1900 9900 50  0001 C CNN
F 1 "GND" H 1900 10000 50  0000 C CNN
F 2 "" H 1900 10150 50  0000 C CNN
F 3 "" H 1900 10150 50  0000 C CNN
	1    1900 10150
	1    0    0    -1  
$EndComp
Wire Wire Line
	1900 10150 1900 10050
Wire Wire Line
	2250 8750 2950 8750
$EndSCHEMATC
